PHSX536/Project-3/Experiment 3 Data.csv

Record Length,2500,Points,-47.59999737E-3,4.79999971,,Record Length,2500,Points,-47.59999737E-3,2.72000003,
Sample Interval,39.99999899E-6,s,-47.55999893E-3,4.79999971,,Sample Interval,39.99999899E-6,s,-47.55999893E-3,2.79999995,
Trigger Point,1.1900000E3,Samples,-47.51999676E-3,4.79999971,,Trigger Point,1.1900000E3,Samples,-47.51999676E-3,2.79999995,
,,,-47.47999832E-3,4.88000011,,,,,-47.47999832E-3,2.79999995,
,,,-47.43999615E-3,4.79999971,,,,,-47.43999615E-3,2.79999995,
,,,-47.39999771E-3,4.79999971,,,,,-47.39999771E-3,2.79999995,
Source,CH1,,-47.35999554E-3,4.79999971,,Source,CH2,,-47.35999554E-3,2.87999988,
Vertical Units,Volts,,-47.31999710E-3,4.79999971,,Vertical Units,Volts,,-47.31999710E-3,2.87999988,
Vertical Scale,2.0000000,,-47.27999866E-3,4.79999971,,Vertical Scale,2.0000000,,-47.27999866E-3,2.96000004,
Vertical Offset,0,,-47.23999649E-3,4.88000011,,Vertical Offset,0,,-47.23999649E-3,2.87999988,
Horizontal Units,s,,-47.19999805E-3,4.88000011,,Horizontal Units,s,,-47.19999805E-3,2.96000004,
Horizontal Scale,9.999999747E-3,,-47.15999588E-3,4.79999971,,Horizontal Scale,9.999999747E-3,,-47.15999588E-3,2.96000004,
Pt Fmt,Y,,-47.11999744E-3,4.88000011,,Pt Fmt,Y,,-47.11999744E-3,2.96000004,
Yzero,0.0,,-47.07999900E-3,4.79999971,,Yzero,0.0,,-47.07999900E-3,2.96000004,
Probe Atten,1.000000,,-47.03999683E-3,4.88000011,,Probe Atten,1.000000,,-47.03999683E-3,3.03999996,
,,,-46.99999839E-3,4.88000011,,,,,-46.99999839E-3,3.03999996,
Note,TDS 2002C - 3:52:22 PM   2/6/2025,,-46.95999622E-3,4.79999971,,Note,TDS 2002C - 3:52:22 PM   2/6/2025,,-46.95999622E-3,3.03999996,
,,,-46.91999778E-3,4.88000011,,,,,-46.91999778E-3,3.03999996,
,,,-46.87999561E-3,4.88000011,,,,,-46.87999561E-3,3.03999996,
,,,-46.83999717E-3,4.88000011,,,,,-46.83999717E-3,3.11999989,
,,,-46.79999873E-3,4.88000011,,,,,-46.79999873E-3,3.11999989,
,,,-46.75999656E-3,4.88000011,,,,,-46.75999656E-3,3.11999989,
,,,-46.71999812E-3,4.88000011,,,,,-46.71999812E-3,3.11999989,
,,,-46.67999595E-3,4.79999971,,,,,-46.67999595E-3,3.11999989,
,,,-46.63999751E-3,4.88000011,,,,,-46.63999751E-3,3.11999989,
,,,-46.59999907E-3,4.88000011,,,,,-46.59999907E-3,3.19999981,
,,,-46.55999690E-3,4.88000011,,,,,-46.55999690E-3,3.19999981,
,,,-46.51999846E-3,4.88000011,,,,,-46.51999846E-3,3.19999981,
,,,-46.47999629E-3,4.88000011,,,,,-46.47999629E-3,3.27999997,
,,,-46.43999785E-3,4.88000011,,,,,-46.43999785E-3,3.27999997,
,,,-46.39999568E-3,4.88000011,,,,,-46.39999568E-3,3.27999997,
,,,-46.35999724E-3,4.88000011,,,,,-46.35999724E-3,3.27999997,
,,,-46.31999880E-3,4.88000011,,,,,-46.31999880E-3,3.27999997,
,,,-46.27999663E-3,4.88000011,,,,,-46.27999663E-3,3.27999997,
,,,-46.23999819E-3,4.88000011,,,,,-46.23999819E-3,3.27999997,
,,,-46.19999602E-3,4.88000011,,,,,-46.19999602E-3,3.27999997,
,,,-46.15999758E-3,4.88000011,,,,,-46.15999758E-3,3.35999990,
,,,-46.11999914E-3,4.88000011,,,,,-46.11999914E-3,3.35999990,
,,,-46.07999697E-3,4.88000011,,,,,-46.07999697E-3,3.35999990,
,,,-46.03999853E-3,4.88000011,,,,,-46.03999853E-3,3.35999990,
,,,-45.99999636E-3,4.88000011,,,,,-45.99999636E-3,3.35999990,
,,,-45.95999792E-3,4.88000011,,,,,-45.95999792E-3,3.35999990,
,,,-45.91999575E-3,4.88000011,,,,,-45.91999575E-3,3.35999990,
,,,-45.87999731E-3,4.88000011,,,,,-45.87999731E-3,3.35999990,
,,,-45.83999887E-3,4.88000011,,,,,-45.83999887E-3,3.35999990,
,,,-45.79999670E-3,4.88000011,,,,,-45.79999670E-3,3.43999982,
,,,-45.75999826E-3,4.88000011,,,,,-45.75999826E-3,3.43999982,
,,,-45.71999609E-3,4.88000011,,,,,-45.71999609E-3,3.43999982,
,,,-45.67999765E-3,4.88000011,,,,,-45.67999765E-3,3.43999982,
,,,-45.63999921E-3,4.88000011,,,,,-45.63999921E-3,3.51999998,
,,,-45.59999704E-3,4.88000011,,,,,-45.59999704E-3,3.43999982,
,,,-45.55999860E-3,4.88000011,,,,,-45.55999860E-3,3.51999998,
,,,-45.51999643E-3,4.88000011,,,,,-45.51999643E-3,3.51999998,
,,,-45.47999799E-3,4.88000011,,,,,-45.47999799E-3,3.51999998,
,,,-45.43999583E-3,4.88000011,,,,,-45.43999583E-3,3.51999998,
,,,-45.39999738E-3,4.88000011,,,,,-45.39999738E-3,3.51999998,
,,,-45.35999894E-3,4.88000011,,,,,-45.35999894E-3,3.51999998,
,,,-45.31999677E-3,4.88000011,,,,,-45.31999677E-3,3.51999998,
,,,-45.27999833E-3,4.88000011,,,,,-45.27999833E-3,3.59999990,
,,,-45.23999617E-3,4.88000011,,,,,-45.23999617E-3,3.59999990,
,,,-45.19999772E-3,4.88000011,,,,,-45.19999772E-3,3.59999990,
,,,-45.15999928E-3,4.88000011,,,,,-45.15999928E-3,3.59999990,
,,,-45.11999711E-3,4.88000011,,,,,-45.11999711E-3,3.59999990,
,,,-45.07999867E-3,4.88000011,,,,,-45.07999867E-3,3.67999983,
,,,-45.03999650E-3,4.88000011,,,,,-45.03999650E-3,3.67999983,
,,,-44.99999806E-3,4.88000011,,,,,-44.99999806E-3,3.67999983,
,,,-44.95999590E-3,4.88000011,,,,,-44.95999590E-3,3.59999990,
,,,-44.91999745E-3,4.88000011,,,,,-44.91999745E-3,3.59999990,
,,,-44.87999901E-3,4.88000011,,,,,-44.87999901E-3,3.67999983,
,,,-44.83999684E-3,4.88000011,,,,,-44.83999684E-3,3.67999983,
,,,-44.79999840E-3,4.88000011,,,,,-44.79999840E-3,3.67999983,
,,,-44.75999624E-3,4.88000011,,,,,-44.75999624E-3,3.67999983,
,,,-44.71999779E-3,4.88000011,,,,,-44.71999779E-3,3.67999983,
,,,-44.67999563E-3,4.88000011,,,,,-44.67999563E-3,3.75999999,
,,,-44.63999718E-3,4.88000011,,,,,-44.63999718E-3,3.75999999,
,,,-44.59999874E-3,4.88000011,,,,,-44.59999874E-3,3.75999999,
,,,-44.55999658E-3,4.88000011,,,,,-44.55999658E-3,3.75999999,
,,,-44.51999813E-3,4.96000004,,,,,-44.51999813E-3,3.75999999,
,,,-44.47999597E-3,4.88000011,,,,,-44.47999597E-3,3.75999999,
,,,-44.43999752E-3,4.88000011,,,,,-44.43999752E-3,3.75999999,
,,,-44.39999908E-3,4.96000004,,,,,-44.39999908E-3,3.83999991,
,,,-44.35999691E-3,4.88000011,,,,,-44.35999691E-3,3.83999991,
,,,-44.31999847E-3,4.96000004,,,,,-44.31999847E-3,3.83999991,
,,,-44.27999631E-3,4.88000011,,,,,-44.27999631E-3,3.83999991,
,,,-44.23999786E-3,4.88000011,,,,,-44.23999786E-3,3.83999991,
,,,-44.19999570E-3,4.96000004,,,,,-44.19999570E-3,3.83999991,
,,,-44.15999725E-3,4.88000011,,,,,-44.15999725E-3,3.83999991,
,,,-44.11999881E-3,4.88000011,,,,,-44.11999881E-3,3.83999991,
,,,-44.07999665E-3,4.88000011,,,,,-44.07999665E-3,3.91999984,
,,,-44.03999820E-3,4.88000011,,,,,-44.03999820E-3,3.91999984,
,,,-43.99999604E-3,4.96000004,,,,,-43.99999604E-3,3.83999991,
,,,-43.95999759E-3,4.96000004,,,,,-43.95999759E-3,3.91999984,
,,,-43.91999915E-3,4.96000004,,,,,-43.91999915E-3,3.91999984,
,,,-43.87999699E-3,4.96000004,,,,,-43.87999699E-3,3.91999984,
,,,-43.83999854E-3,4.88000011,,,,,-43.83999854E-3,3.91999984,
,,,-43.79999638E-3,4.96000004,,,,,-43.79999638E-3,4.00000000,
,,,-43.75999793E-3,4.88000011,,,,,-43.75999793E-3,4.00000000,
,,,-43.71999577E-3,4.88000011,,,,,-43.71999577E-3,4.00000000,
,,,-43.67999732E-3,4.88000011,,,,,-43.67999732E-3,3.91999984,
,,,-43.63999888E-3,4.88000011,,,,,-43.63999888E-3,4.00000000,
,,,-43.59999672E-3,4.88000011,,,,,-43.59999672E-3,4.00000000,
,,,-43.55999827E-3,4.88000011,,,,,-43.55999827E-3,4.00000000,
,,,-43.51999611E-3,4.88000011,,,,,-43.51999611E-3,4.00000000,
,,,-43.47999766E-3,4.88000011,,,,,-43.47999766E-3,4.00000000,
,,,-43.43999922E-3,4.96000004,,,,,-43.43999922E-3,4.00000000,
,,,-43.39999706E-3,4.96000004,,,,,-43.39999706E-3,4.00000000,
,,,-43.35999861E-3,4.96000004,,,,,-43.35999861E-3,4.00000000,
,,,-43.31999645E-3,4.96000004,,,,,-43.31999645E-3,4.00000000,
,,,-43.27999800E-3,4.88000011,,,,,-43.27999800E-3,4.00000000,
,,,-43.23999584E-3,4.88000011,,,,,-43.23999584E-3,4.00000000,
,,,-43.19999740E-3,4.96000004,,,,,-43.19999740E-3,4.07999992,
,,,-43.15999895E-3,4.96000004,,,,,-43.15999895E-3,4.07999992,
,,,-43.11999679E-3,4.88000011,,,,,-43.11999679E-3,4.00000000,
,,,-43.07999834E-3,4.88000011,,,,,-43.07999834E-3,4.07999992,
,,,-43.03999618E-3,4.96000004,,,,,-43.03999618E-3,4.07999992,
,,,-42.99999774E-3,4.96000004,,,,,-42.99999774E-3,4.07999992,
,,,-42.95999929E-3,4.96000004,,,,,-42.95999929E-3,4.07999992,
,,,-42.91999713E-3,4.96000004,,,,,-42.91999713E-3,4.07999992,
,,,-42.87999868E-3,4.96000004,,,,,-42.87999868E-3,4.07999992,
,,,-42.83999652E-3,4.96000004,,,,,-42.83999652E-3,4.15999985,
,,,-42.79999807E-3,4.88000011,,,,,-42.79999807E-3,4.15999985,
,,,-42.75999591E-3,4.96000004,,,,,-42.75999591E-3,4.15999985,
,,,-42.71999747E-3,4.96000004,,,,,-42.71999747E-3,4.15999985,
,,,-42.67999902E-3,4.88000011,,,,,-42.67999902E-3,4.15999985,
,,,-42.63999686E-3,4.96000004,,,,,-42.63999686E-3,4.07999992,
,,,-42.59999841E-3,4.96000004,,,,,-42.59999841E-3,4.15999985,
,,,-42.55999625E-3,4.96000004,,,,,-42.55999625E-3,4.15999985,
,,,-42.51999781E-3,4.96000004,,,,,-42.51999781E-3,4.15999985,
,,,-42.47999936E-3,4.96000004,,,,,-42.47999936E-3,4.15999985,
,,,-42.43999720E-3,4.96000004,,,,,-42.43999720E-3,4.23999977,
,,,-42.39999875E-3,4.96000004,,,,,-42.39999875E-3,4.15999985,
,,,-42.35999659E-3,4.96000004,,,,,-42.35999659E-3,4.15999985,
,,,-42.31999815E-3,4.96000004,,,,,-42.31999815E-3,4.23999977,
,,,-42.27999598E-3,4.96000004,,,,,-42.27999598E-3,4.23999977,
,,,-42.23999754E-3,4.96000004,,,,,-42.23999754E-3,4.23999977,
,,,-42.19999909E-3,4.96000004,,,,,-42.19999909E-3,4.23999977,
,,,-42.15999693E-3,4.96000004,,,,,-42.15999693E-3,4.23999977,
,,,-42.11999848E-3,4.96000004,,,,,-42.11999848E-3,4.23999977,
,,,-42.07999632E-3,4.96000004,,,,,-42.07999632E-3,4.23999977,
,,,-42.03999788E-3,4.96000004,,,,,-42.03999788E-3,4.23999977,
,,,-41.99999571E-3,4.96000004,,,,,-41.99999571E-3,4.31999969,
,,,-41.95999727E-3,4.96000004,,,,,-41.95999727E-3,4.23999977,
,,,-41.91999882E-3,4.96000004,,,,,-41.91999882E-3,4.31999969,
,,,-41.87999666E-3,4.96000004,,,,,-41.87999666E-3,4.23999977,
,,,-41.83999822E-3,5.03999996,,,,,-41.83999822E-3,4.31999969,
,,,-41.79999605E-3,4.96000004,,,,,-41.79999605E-3,4.31999969,
,,,-41.75999761E-3,4.96000004,,,,,-41.75999761E-3,4.31999969,
,,,-41.71999916E-3,4.96000004,,,,,-41.71999916E-3,4.23999977,
,,,-41.67999700E-3,4.96000004,,,,,-41.67999700E-3,4.31999969,
,,,-41.63999856E-3,4.88000011,,,,,-41.63999856E-3,4.31999969,
,,,-41.59999639E-3,4.96000004,,,,,-41.59999639E-3,4.31999969,
,,,-41.55999795E-3,4.96000004,,,,,-41.55999795E-3,4.31999969,
,,,-41.51999578E-3,4.96000004,,,,,-41.51999578E-3,4.31999969,
,,,-41.47999734E-3,4.96000004,,,,,-41.47999734E-3,4.31999969,
,,,-41.43999889E-3,4.96000004,,,,,-41.43999889E-3,4.31999969,
,,,-41.39999673E-3,4.96000004,,,,,-41.39999673E-3,4.31999969,
,,,-41.35999829E-3,4.96000004,,,,,-41.35999829E-3,4.40000010,
,,,-41.31999612E-3,4.96000004,,,,,-41.31999612E-3,4.40000010,
,,,-41.27999768E-3,4.96000004,,,,,-41.27999768E-3,4.40000010,
,,,-41.23999923E-3,4.96000004,,,,,-41.23999923E-3,4.40000010,
,,,-41.19999707E-3,4.96000004,,,,,-41.19999707E-3,4.40000010,
,,,-41.15999863E-3,4.96000004,,,,,-41.15999863E-3,4.40000010,
,,,-41.11999646E-3,4.96000004,,,,,-41.11999646E-3,4.40000010,
,,,-41.07999802E-3,4.96000004,,,,,-41.07999802E-3,4.31999969,
,,,-41.03999585E-3,4.96000004,,,,,-41.03999585E-3,4.40000010,
,,,-40.99999741E-3,4.96000004,,,,,-40.99999741E-3,4.40000010,
,,,-40.95999897E-3,4.96000004,,,,,-40.95999897E-3,4.40000010,
,,,-40.91999680E-3,4.96000004,,,,,-40.91999680E-3,4.40000010,
,,,-40.87999836E-3,4.96000004,,,,,-40.87999836E-3,4.40000010,
,,,-40.83999619E-3,4.96000004,,,,,-40.83999619E-3,4.40000010,
,,,-40.79999775E-3,4.96000004,,,,,-40.79999775E-3,4.40000010,
,,,-40.75999931E-3,4.96000004,,,,,-40.75999931E-3,4.40000010,
,,,-40.71999714E-3,4.96000004,,,,,-40.71999714E-3,4.40000010,
,,,-40.67999870E-3,4.88000011,,,,,-40.67999870E-3,4.40000010,
,,,-40.63999653E-3,4.96000004,,,,,-40.63999653E-3,4.48000002,
,,,-40.59999809E-3,4.96000004,,,,,-40.59999809E-3,4.48000002,
,,,-40.55999592E-3,4.96000004,,,,,-40.55999592E-3,4.48000002,
,,,-40.51999748E-3,4.96000004,,,,,-40.51999748E-3,4.40000010,
,,,-40.47999904E-3,4.96000004,,,,,-40.47999904E-3,4.48000002,
,,,-40.43999687E-3,4.96000004,,,,,-40.43999687E-3,4.48000002,
,,,-40.39999843E-3,4.96000004,,,,,-40.39999843E-3,4.48000002,
,,,-40.35999626E-3,4.96000004,,,,,-40.35999626E-3,4.48000002,
,,,-40.31999782E-3,4.96000004,,,,,-40.31999782E-3,4.48000002,
,,,-40.27999938E-3,4.96000004,,,,,-40.27999938E-3,4.48000002,
,,,-40.23999721E-3,4.96000004,,,,,-40.23999721E-3,4.48000002,
,,,-40.19999877E-3,4.96000004,,,,,-40.19999877E-3,4.48000002,
,,,-40.15999660E-3,4.96000004,,,,,-40.15999660E-3,4.48000002,
,,,-40.11999816E-3,4.96000004,,,,,-40.11999816E-3,4.48000002,
,,,-40.07999599E-3,4.96000004,,,,,-40.07999599E-3,4.48000002,
,,,-40.03999755E-3,4.96000004,,,,,-40.03999755E-3,4.48000002,
,,,-39.99999911E-3,4.96000004,,,,,-39.99999911E-3,4.55999994,
,,,-39.95999694E-3,4.96000004,,,,,-39.95999694E-3,4.55999994,
,,,-39.91999850E-3,4.96000004,,,,,-39.91999850E-3,4.48000002,
,,,-39.87999633E-3,4.96000004,,,,,-39.87999633E-3,4.55999994,
,,,-39.83999789E-3,4.96000004,,,,,-39.83999789E-3,4.55999994,
,,,-39.79999572E-3,4.96000004,,,,,-39.79999572E-3,4.55999994,
,,,-39.75999728E-3,4.96000004,,,,,-39.75999728E-3,4.55999994,
,,,-39.71999884E-3,4.96000004,,,,,-39.71999884E-3,4.55999994,
,,,-39.67999667E-3,4.96000004,,,,,-39.67999667E-3,4.48000002,
,,,-39.63999823E-3,4.96000004,,,,,-39.63999823E-3,4.55999994,
,,,-39.59999606E-3,4.96000004,,,,,-39.59999606E-3,4.55999994,
,,,-39.55999762E-3,5.03999996,,,,,-39.55999762E-3,4.55999994,
,,,-39.51999918E-3,4.96000004,,,,,-39.51999918E-3,4.63999987,
,,,-39.47999701E-3,5.03999996,,,,,-39.47999701E-3,4.55999994,
,,,-39.43999857E-3,4.96000004,,,,,-39.43999857E-3,4.55999994,
,,,-39.39999640E-3,4.96000004,,,,,-39.39999640E-3,4.55999994,
,,,-39.35999796E-3,4.96000004,,,,,-39.35999796E-3,4.63999987,
,,,-39.31999579E-3,4.96000004,,,,,-39.31999579E-3,4.55999994,
,,,-39.27999735E-3,4.96000004,,,,,-39.27999735E-3,4.55999994,
,,,-39.23999891E-3,4.96000004,,,,,-39.23999891E-3,4.55999994,
,,,-39.19999674E-3,4.96000004,,,,,-39.19999674E-3,4.63999987,
,,,-39.15999830E-3,4.96000004,,,,,-39.15999830E-3,4.63999987,
,,,-39.11999613E-3,4.96000004,,,,,-39.11999613E-3,4.63999987,
,,,-39.07999769E-3,4.96000004,,,,,-39.07999769E-3,4.63999987,
,,,-39.03999925E-3,4.96000004,,,,,-39.03999925E-3,4.63999987,
,,,-38.99999708E-3,4.96000004,,,,,-38.99999708E-3,4.63999987,
,,,-38.95999864E-3,4.96000004,,,,,-38.95999864E-3,4.63999987,
,,,-38.91999647E-3,4.96000004,,,,,-38.91999647E-3,4.63999987,
,,,-38.87999803E-3,4.96000004,,,,,-38.87999803E-3,4.63999987,
,,,-38.83999586E-3,4.96000004,,,,,-38.83999586E-3,4.55999994,
,,,-38.79999742E-3,4.96000004,,,,,-38.79999742E-3,4.63999987,
,,,-38.75999898E-3,5.03999996,,,,,-38.75999898E-3,4.63999987,
,,,-38.71999681E-3,4.96000004,,,,,-38.71999681E-3,4.63999987,
,,,-38.67999837E-3,4.96000004,,,,,-38.67999837E-3,4.63999987,
,,,-38.63999620E-3,4.96000004,,,,,-38.63999620E-3,4.63999987,
,,,-38.59999776E-3,4.96000004,,,,,-38.59999776E-3,4.63999987,
,,,-38.55999932E-3,4.96000004,,,,,-38.55999932E-3,4.63999987,
,,,-38.51999715E-3,4.96000004,,,,,-38.51999715E-3,4.63999987,
,,,-38.47999871E-3,4.96000004,,,,,-38.47999871E-3,4.63999987,
,,,-38.43999654E-3,4.96000004,,,,,-38.43999654E-3,4.63999987,
,,,-38.39999810E-3,4.96000004,,,,,-38.39999810E-3,4.63999987,
,,,-38.35999593E-3,4.96000004,,,,,-38.35999593E-3,4.63999987,
,,,-38.31999749E-3,4.96000004,,,,,-38.31999749E-3,4.71999979,
,,,-38.27999905E-3,4.96000004,,,,,-38.27999905E-3,4.63999987,
,,,-38.23999688E-3,4.96000004,,,,,-38.23999688E-3,4.63999987,
,,,-38.19999844E-3,4.96000004,,,,,-38.19999844E-3,4.63999987,
,,,-38.15999627E-3,5.03999996,,,,,-38.15999627E-3,4.63999987,
,,,-38.11999783E-3,4.96000004,,,,,-38.11999783E-3,4.63999987,
,,,-38.07999939E-3,5.03999996,,,,,-38.07999939E-3,4.71999979,
,,,-38.03999722E-3,4.96000004,,,,,-38.03999722E-3,4.63999987,
,,,-37.99999878E-3,4.96000004,,,,,-37.99999878E-3,4.71999979,
,,,-37.95999661E-3,4.96000004,,,,,-37.95999661E-3,4.63999987,
,,,-37.91999817E-3,4.96000004,,,,,-37.91999817E-3,4.63999987,
,,,-37.87999600E-3,4.96000004,,,,,-37.87999600E-3,4.71999979,
,,,-37.83999756E-3,4.96000004,,,,,-37.83999756E-3,4.71999979,
,,,-37.79999912E-3,4.96000004,,,,,-37.79999912E-3,4.63999987,
,,,-37.75999695E-3,4.96000004,,,,,-37.75999695E-3,4.71999979,
,,,-37.71999851E-3,4.96000004,,,,,-37.71999851E-3,4.71999979,
,,,-37.67999634E-3,4.96000004,,,,,-37.67999634E-3,4.71999979,
,,,-37.63999790E-3,4.96000004,,,,,-37.63999790E-3,4.71999979,
,,,-37.59999946E-3,4.96000004,,,,,-37.59999946E-3,4.71999979,
,,,-37.55999729E-3,4.96000004,,,,,-37.55999729E-3,4.71999979,
,,,-37.51999885E-3,5.03999996,,,,,-37.51999885E-3,4.71999979,
,,,-37.47999668E-3,4.96000004,,,,,-37.47999668E-3,4.71999979,
,,,-37.43999824E-3,4.96000004,,,,,-37.43999824E-3,4.71999979,
,,,-37.39999607E-3,4.96000004,,,,,-37.39999607E-3,4.71999979,
,,,-37.35999763E-3,4.96000004,,,,,-37.35999763E-3,4.71999979,
,,,-37.31999919E-3,5.03999996,,,,,-37.31999919E-3,4.71999979,
,,,-37.27999702E-3,4.96000004,,,,,-37.27999702E-3,4.71999979,
,,,-37.23999858E-3,5.03999996,,,,,-37.23999858E-3,4.79999971,
,,,-37.19999641E-3,4.96000004,,,,,-37.19999641E-3,4.71999979,
,,,-37.15999797E-3,5.03999996,,,,,-37.15999797E-3,4.71999979,
,,,-37.11999580E-3,4.96000004,,,,,-37.11999580E-3,4.71999979,
,,,-37.07999736E-3,4.96000004,,,,,-37.07999736E-3,4.79999971,
,,,-37.03999892E-3,4.96000004,,,,,-37.03999892E-3,4.79999971,
,,,-36.99999675E-3,5.03999996,,,,,-36.99999675E-3,4.79999971,
,,,-36.95999831E-3,5.03999996,,,,,-36.95999831E-3,4.79999971,
,,,-36.91999614E-3,4.96000004,,,,,-36.91999614E-3,4.71999979,
,,,-36.87999770E-3,4.96000004,,,,,-36.87999770E-3,4.71999979,
,,,-36.83999926E-3,4.96000004,,,,,-36.83999926E-3,4.71999979,
,,,-36.79999709E-3,5.03999996,,,,,-36.79999709E-3,4.71999979,
,,,-36.75999865E-3,4.96000004,,,,,-36.75999865E-3,4.71999979,
,,,-36.71999648E-3,4.96000004,,,,,-36.71999648E-3,4.79999971,
,,,-36.67999804E-3,4.96000004,,,,,-36.67999804E-3,4.79999971,
,,,-36.63999587E-3,4.96000004,,,,,-36.63999587E-3,4.71999979,
,,,-36.59999743E-3,4.96000004,,,,,-36.59999743E-3,4.79999971,
,,,-36.55999899E-3,4.96000004,,,,,-36.55999899E-3,4.71999979,
,,,-36.51999682E-3,5.03999996,,,,,-36.51999682E-3,4.79999971,
,,,-36.47999838E-3,4.96000004,,,,,-36.47999838E-3,4.79999971,
,,,-36.43999621E-3,4.96000004,,,,,-36.43999621E-3,4.79999971,
,,,-36.39999777E-3,4.96000004,,,,,-36.39999777E-3,4.79999971,
,,,-36.35999933E-3,4.96000004,,,,,-36.35999933E-3,4.71999979,
,,,-36.31999716E-3,4.96000004,,,,,-36.31999716E-3,4.79999971,
,,,-36.27999872E-3,4.96000004,,,,,-36.27999872E-3,4.79999971,
,,,-36.23999655E-3,4.96000004,,,,,-36.23999655E-3,4.79999971,
,,,-36.19999811E-3,4.96000004,,,,,-36.19999811E-3,4.79999971,
,,,-36.15999594E-3,4.96000004,,,,,-36.15999594E-3,4.79999971,
,,,-36.11999750E-3,4.96000004,,,,,-36.11999750E-3,4.79999971,
,,,-36.07999906E-3,4.96000004,,,,,-36.07999906E-3,4.79999971,
,,,-36.03999689E-3,5.03999996,,,,,-36.03999689E-3,4.79999971,
,,,-35.99999845E-3,4.96000004,,,,,-35.99999845E-3,4.79999971,
,,,-35.95999628E-3,5.03999996,,,,,-35.95999628E-3,4.71999979,
,,,-35.91999784E-3,4.96000004,,,,,-35.91999784E-3,4.79999971,
,,,-35.87999940E-3,4.96000004,,,,,-35.87999940E-3,4.79999971,
,,,-35.83999723E-3,5.03999996,,,,,-35.83999723E-3,4.79999971,
,,,-35.79999879E-3,4.96000004,,,,,-35.79999879E-3,4.79999971,
,,,-35.75999662E-3,4.96000004,,,,,-35.75999662E-3,4.88000011,
,,,-35.71999818E-3,5.03999996,,,,,-35.71999818E-3,4.79999971,
,,,-35.67999601E-3,5.03999996,,,,,-35.67999601E-3,4.79999971,
,,,-35.63999757E-3,4.96000004,,,,,-35.63999757E-3,4.79999971,
,,,-35.59999913E-3,5.03999996,,,,,-35.59999913E-3,4.79999971,
,,,-35.55999696E-3,4.96000004,,,,,-35.55999696E-3,4.79999971,
,,,-35.51999852E-3,4.96000004,,,,,-35.51999852E-3,4.79999971,
,,,-35.47999635E-3,4.96000004,,,,,-35.47999635E-3,4.79999971,
,,,-35.43999791E-3,5.03999996,,,,,-35.43999791E-3,4.88000011,
,,,-35.39999947E-3,5.03999996,,,,,-35.39999947E-3,4.88000011,
,,,-35.35999730E-3,5.03999996,,,,,-35.35999730E-3,4.79999971,
,,,-35.31999886E-3,4.96000004,,,,,-35.31999886E-3,4.79999971,
,,,-35.27999669E-3,4.96000004,,,,,-35.27999669E-3,4.79999971,
,,,-35.23999825E-3,4.96000004,,,,,-35.23999825E-3,4.79999971,
,,,-35.19999608E-3,5.03999996,,,,,-35.19999608E-3,4.88000011,
,,,-35.15999764E-3,4.96000004,,,,,-35.15999764E-3,4.88000011,
,,,-35.11999920E-3,4.96000004,,,,,-35.11999920E-3,4.88000011,
