PHSX536/Final/data/frequency_sweep/2000000Hz.csv

Record Length,2500,Points,2.2210102E-3,-5.00000000,,Record Length,2500,Points,2.2210102E-3,0.0,
Sample Interval,999.999967622E-12,s,2.2210111E-3,-4.80000019,,Sample Interval,999.999967622E-12,s,2.2210111E-3,0.0,
Trigger Point,-2.2210102E6,Samples,2.2210123E-3,-4.59999990,,Trigger Point,-2.2210102E6,Samples,2.2210123E-3,0.0,
,,,2.2210132E-3,-4.40000010,,,,,2.2210132E-3,0.0,
,,,2.2210141E-3,-4.20000029,,,,,2.2210141E-3,0.0,
,,,2.2210150E-3,-3.79999995,,,,,2.2210150E-3,0.0,
Source,CH1,,2.2210162E-3,-3.20000005,,Source,CH2,,2.2210162E-3,0.0,
Vertical Units,Volts,,2.2210171E-3,-2.6000001,,Vertical Units,Volts,,2.2210171E-3,0.0,
Vertical Scale,5.00000007,,2.2210181E-3,-2.0000000,,Vertical Scale,5.00000007,,2.2210181E-3,0.0,
Vertical Offset,0,,2.2210192E-3,-1.2000000,,Vertical Offset,0,,2.2210192E-3,0.0,
Horizontal Units,s,,2.2210202E-3,-400.00000596E-3,,Horizontal Units,s,,2.2210202E-3,200.00000298E-3,
Horizontal Scale,249.99999293E-9,,2.2210211E-3,200.00000298E-3,,Horizontal Scale,249.99999293E-9,,2.2210211E-3,0.0,
Pt Fmt,Y,,2.2210223E-3,1.000000,,Pt Fmt,Y,,2.2210223E-3,0.0,
Yzero,0.0,,2.2210232E-3,1.6000000,,Yzero,40.00000000E-3,,2.2210232E-3,0.0,
Probe Atten,1.000000,,2.2210241E-3,2.2000000,,Probe Atten,1.000000,,2.2210241E-3,0.0,
,,,2.2210251E-3,2.79999995,,,,,2.2210251E-3,0.0,
Note,TDS 2002C - 12:24:17 PM   5/12/2025,,2.2210262E-3,3.20000005,,Note,TDS 2002C - 12:24:17 PM   5/12/2025,,2.2210262E-3,0.0,
,,,2.2210272E-3,3.60000014,,,,,2.2210272E-3,0.0,
,,,2.2210281E-3,4.20000029,,,,,2.2210281E-3,0.0,
,,,2.2210293E-3,4.80000019,,,,,2.2210293E-3,0.0,
,,,2.2210302E-3,5.00000000,,,,,2.2210302E-3,0.0,
,,,2.2210311E-3,5.59999990,,,,,2.2210311E-3,0.0,
,,,2.2210320E-3,6.00000000,,,,,2.2210320E-3,0.0,
,,,2.2210332E-3,6.40000010,,,,,2.2210332E-3,0.0,
,,,2.2210341E-3,6.59999990,,,,,2.2210341E-3,0.0,
,,,2.2210351E-3,6.80000019,,,,,2.2210351E-3,0.0,
,,,2.2210362E-3,7.00000000,,,,,2.2210362E-3,0.0,
,,,2.2210372E-3,7.20000029,,,,,2.2210372E-3,200.00000298E-3,
,,,2.2210381E-3,7.20000029,,,,,2.2210381E-3,0.0,
,,,2.2210393E-3,7.400000095,,,,,2.2210393E-3,200.00000298E-3,
,,,2.2210402E-3,7.400000095,,,,,2.2210402E-3,0.0,
,,,2.2210411E-3,7.400000095,,,,,2.2210411E-3,0.0,
,,,2.2210421E-3,7.400000095,,,,,2.2210421E-3,0.0,
,,,2.2210432E-3,7.400000095,,,,,2.2210432E-3,0.0,
,,,2.2210442E-3,7.400000095,,,,,2.2210442E-3,0.0,
,,,2.2210451E-3,7.400000095,,,,,2.2210451E-3,0.0,
,,,2.2210462E-3,7.400000095,,,,,2.2210462E-3,0.0,
,,,2.2210472E-3,7.20000029,,,,,2.2210472E-3,0.0,
,,,2.2210481E-3,7.20000029,,,,,2.2210481E-3,0.0,
,,,2.2210493E-3,7.20000029,,,,,2.2210493E-3,0.0,
,,,2.2210502E-3,7.00000000,,,,,2.2210502E-3,0.0,
,,,2.2210511E-3,6.80000019,,,,,2.2210511E-3,0.0,
,,,2.2210521E-3,6.80000019,,,,,2.2210521E-3,0.0,
,,,2.2210532E-3,6.59999990,,,,,2.2210532E-3,0.0,
,,,2.2210542E-3,6.40000010,,,,,2.2210542E-3,0.0,
,,,2.2210551E-3,6.20000029,,,,,2.2210551E-3,0.0,
,,,2.2210563E-3,6.20000029,,,,,2.2210563E-3,-200.00000298E-3,
,,,2.2210572E-3,6.00000000,,,,,2.2210572E-3,0.0,
,,,2.2210581E-3,5.80000019,,,,,2.2210581E-3,-200.00000298E-3,
,,,2.2210591E-3,5.80000019,,,,,2.2210591E-3,-200.00000298E-3,
,,,2.2210602E-3,5.59999990,,,,,2.2210602E-3,0.0,
,,,2.2210611E-3,5.40000010,,,,,2.2210611E-3,0.0,
,,,2.2210621E-3,5.20000029,,,,,2.2210621E-3,0.0,
,,,2.2210632E-3,5.20000029,,,,,2.2210632E-3,-200.00000298E-3,
,,,2.2210642E-3,5.00000000,,,,,2.2210642E-3,-200.00000298E-3,
,,,2.2210651E-3,5.00000000,,,,,2.2210651E-3,-200.00000298E-3,
,,,2.2210663E-3,4.80000019,,,,,2.2210663E-3,-200.00000298E-3,
,,,2.2210672E-3,4.59999990,,,,,2.2210672E-3,-200.00000298E-3,
,,,2.2210681E-3,4.59999990,,,,,2.2210681E-3,-200.00000298E-3,
,,,2.2210691E-3,4.40000010,,,,,2.2210691E-3,-200.00000298E-3,
,,,2.2210702E-3,4.40000010,,,,,2.2210702E-3,-200.00000298E-3,
,,,2.2210712E-3,4.40000010,,,,,2.2210712E-3,0.0,
,,,2.2210721E-3,4.40000010,,,,,2.2210721E-3,0.0,
,,,2.2210733E-3,4.40000010,,,,,2.2210733E-3,0.0,
,,,2.2210742E-3,4.20000029,,,,,2.2210742E-3,0.0,
,,,2.2210751E-3,4.20000029,,,,,2.2210751E-3,0.0,
,,,2.2210761E-3,4.40000010,,,,,2.2210761E-3,-200.00000298E-3,
,,,2.2210772E-3,4.40000010,,,,,2.2210772E-3,-200.00000298E-3,
,,,2.2210781E-3,4.40000010,,,,,2.2210781E-3,-200.00000298E-3,
,,,2.2210791E-3,4.40000010,,,,,2.2210791E-3,-200.00000298E-3,
,,,2.2210802E-3,4.40000010,,,,,2.2210802E-3,0.0,
,,,2.2210812E-3,4.40000010,,,,,2.2210812E-3,-200.00000298E-3,
,,,2.2210821E-3,4.59999990,,,,,2.2210821E-3,0.0,
,,,2.2210833E-3,4.59999990,,,,,2.2210833E-3,0.0,
,,,2.2210842E-3,4.59999990,,,,,2.2210842E-3,0.0,
,,,2.2210851E-3,4.80000019,,,,,2.2210851E-3,0.0,
,,,2.2210861E-3,4.80000019,,,,,2.2210861E-3,-200.00000298E-3,
,,,2.2210872E-3,4.80000019,,,,,2.2210872E-3,0.0,
,,,2.2210882E-3,5.00000000,,,,,2.2210882E-3,0.0,
,,,2.2210891E-3,5.00000000,,,,,2.2210891E-3,0.0,
,,,2.2210903E-3,5.00000000,,,,,2.2210903E-3,0.0,
,,,2.2210912E-3,5.20000029,,,,,2.2210912E-3,0.0,
,,,2.2210921E-3,5.20000029,,,,,2.2210921E-3,-200.00000298E-3,
,,,2.2210930E-3,5.20000029,,,,,2.2210930E-3,0.0,
,,,2.2210942E-3,5.20000029,,,,,2.2210942E-3,-200.00000298E-3,
,,,2.2210951E-3,5.20000029,,,,,2.2210951E-3,-200.00000298E-3,
,,,2.2210961E-3,5.20000029,,,,,2.2210961E-3,0.0,
,,,2.2210972E-3,5.20000029,,,,,2.2210972E-3,0.0,
,,,2.2210982E-3,5.40000010,,,,,2.2210982E-3,-200.00000298E-3,
,,,2.2210991E-3,5.40000010,,,,,2.2210991E-3,-200.00000298E-3,
,,,2.2211003E-3,5.40000010,,,,,2.2211003E-3,-200.00000298E-3,
,,,2.2211012E-3,5.40000010,,,,,2.2211012E-3,-200.00000298E-3,
,,,2.2211021E-3,5.20000029,,,,,2.2211021E-3,-200.00000298E-3,
,,,2.2211031E-3,5.20000029,,,,,2.2211031E-3,-200.00000298E-3,
,,,2.2211042E-3,5.20000029,,,,,2.2211042E-3,-200.00000298E-3,
,,,2.2211052E-3,5.20000029,,,,,2.2211052E-3,-200.00000298E-3,
,,,2.2211061E-3,5.20000029,,,,,2.2211061E-3,-200.00000298E-3,
,,,2.2211073E-3,5.20000029,,,,,2.2211073E-3,-200.00000298E-3,
,,,2.2211082E-3,5.20000029,,,,,2.2211082E-3,-200.00000298E-3,
,,,2.2211091E-3,5.00000000,,,,,2.2211091E-3,-200.00000298E-3,
,,,2.2211100E-3,5.00000000,,,,,2.2211100E-3,-200.00000298E-3,
,,,2.2211112E-3,5.20000029,,,,,2.2211112E-3,-200.00000298E-3,
,,,2.2211121E-3,5.00000000,,,,,2.2211121E-3,-200.00000298E-3,
,,,2.2211131E-3,5.00000000,,,,,2.2211131E-3,0.0,
,,,2.2211142E-3,5.00000000,,,,,2.2211142E-3,0.0,
,,,2.2211152E-3,5.00000000,,,,,2.2211152E-3,-200.00000298E-3,
,,,2.2211161E-3,5.00000000,,,,,2.2211161E-3,-200.00000298E-3,
,,,2.2211173E-3,5.00000000,,,,,2.2211173E-3,-200.00000298E-3,
,,,2.2211182E-3,5.00000000,,,,,2.2211182E-3,0.0,
,,,2.2211191E-3,5.00000000,,,,,2.2211191E-3,0.0,
,,,2.2211201E-3,5.00000000,,,,,2.2211201E-3,0.0,
,,,2.2211212E-3,5.00000000,,,,,2.2211212E-3,0.0,
,,,2.2211222E-3,5.00000000,,,,,2.2211222E-3,0.0,
,,,2.2211231E-3,5.20000029,,,,,2.2211231E-3,0.0,
,,,2.2211242E-3,5.00000000,,,,,2.2211242E-3,0.0,
,,,2.2211252E-3,5.20000029,,,,,2.2211252E-3,0.0,
,,,2.2211261E-3,5.20000029,,,,,2.2211261E-3,0.0,
,,,2.2211273E-3,5.20000029,,,,,2.2211273E-3,0.0,
,,,2.2211282E-3,5.20000029,,,,,2.2211282E-3,0.0,
,,,2.2211291E-3,5.20000029,,,,,2.2211291E-3,0.0,
,,,2.2211301E-3,5.20000029,,,,,2.2211301E-3,0.0,
,,,2.2211312E-3,5.20000029,,,,,2.2211312E-3,0.0,
,,,2.2211322E-3,5.20000029,,,,,2.2211322E-3,0.0,
,,,2.2211331E-3,5.20000029,,,,,2.2211331E-3,0.0,
,,,2.2211343E-3,5.20000029,,,,,2.2211343E-3,0.0,
,,,2.2211352E-3,5.20000029,,,,,2.2211352E-3,0.0,
,,,2.2211361E-3,5.20000029,,,,,2.2211361E-3,0.0,
,,,2.2211371E-3,5.20000029,,,,,2.2211371E-3,0.0,
,,,2.2211382E-3,5.20000029,,,,,2.2211382E-3,0.0,
,,,2.2211391E-3,5.20000029,,,,,2.2211391E-3,0.0,
,,,2.2211401E-3,5.20000029,,,,,2.2211401E-3,0.0,
,,,2.2211412E-3,5.20000029,,,,,2.2211412E-3,0.0,
,,,2.2211422E-3,5.00000000,,,,,2.2211422E-3,0.0,
,,,2.2211431E-3,5.00000000,,,,,2.2211431E-3,0.0,
,,,2.2211443E-3,5.00000000,,,,,2.2211443E-3,0.0,
,,,2.2211452E-3,5.00000000,,,,,2.2211452E-3,0.0,
,,,2.2211461E-3,5.00000000,,,,,2.2211461E-3,0.0,
,,,2.2211471E-3,5.00000000,,,,,2.2211471E-3,0.0,
,,,2.2211482E-3,5.00000000,,,,,2.2211482E-3,0.0,
,,,2.2211492E-3,5.00000000,,,,,2.2211492E-3,0.0,
,,,2.2211501E-3,5.00000000,,,,,2.2211501E-3,0.0,
,,,2.2211513E-3,5.00000000,,,,,2.2211513E-3,0.0,
,,,2.2211522E-3,5.00000000,,,,,2.2211522E-3,0.0,
,,,2.2211531E-3,5.00000000,,,,,2.2211531E-3,0.0,
,,,2.2211540E-3,5.00000000,,,,,2.2211540E-3,0.0,
,,,2.2211552E-3,5.00000000,,,,,2.2211552E-3,0.0,
,,,2.2211561E-3,5.00000000,,,,,2.2211561E-3,0.0,
,,,2.2211571E-3,5.00000000,,,,,2.2211571E-3,0.0,
,,,2.2211582E-3,5.00000000,,,,,2.2211582E-3,0.0,
,,,2.2211592E-3,5.00000000,,,,,2.2211592E-3,0.0,
,,,2.2211601E-3,5.00000000,,,,,2.2211601E-3,0.0,
,,,2.2211613E-3,5.00000000,,,,,2.2211613E-3,0.0,
,,,2.2211622E-3,5.00000000,,,,,2.2211622E-3,0.0,
,,,2.2211631E-3,5.00000000,,,,,2.2211631E-3,0.0,
,,,2.2211641E-3,5.00000000,,,,,2.2211641E-3,0.0,
,,,2.2211652E-3,5.00000000,,,,,2.2211652E-3,0.0,
,,,2.2211662E-3,5.00000000,,,,,2.2211662E-3,0.0,
,,,2.2211671E-3,5.20000029,,,,,2.2211671E-3,0.0,
,,,2.2211683E-3,5.20000029,,,,,2.2211683E-3,0.0,
,,,2.2211692E-3,5.20000029,,,,,2.2211692E-3,0.0,
,,,2.2211701E-3,5.20000029,,,,,2.2211701E-3,0.0,
,,,2.2211710E-3,5.20000029,,,,,2.2211710E-3,0.0,
,,,2.2211722E-3,5.20000029,,,,,2.2211722E-3,0.0,
,,,2.2211731E-3,5.20000029,,,,,2.2211731E-3,0.0,
,,,2.2211741E-3,5.20000029,,,,,2.2211741E-3,0.0,
,,,2.2211752E-3,5.20000029,,,,,2.2211752E-3,0.0,
,,,2.2211762E-3,5.20000029,,,,,2.2211762E-3,0.0,
,,,2.2211771E-3,5.00000000,,,,,2.2211771E-3,0.0,
,,,2.2211783E-3,5.00000000,,,,,2.2211783E-3,0.0,
,,,2.2211792E-3,5.20000029,,,,,2.2211792E-3,0.0,
,,,2.2211801E-3,5.20000029,,,,,2.2211801E-3,0.0,
,,,2.2211811E-3,5.20000029,,,,,2.2211811E-3,0.0,
,,,2.2211822E-3,5.20000029,,,,,2.2211822E-3,0.0,
,,,2.2211832E-3,5.00000000,,,,,2.2211832E-3,0.0,
,,,2.2211841E-3,5.00000000,,,,,2.2211841E-3,0.0,
,,,2.2211852E-3,5.00000000,,,,,2.2211852E-3,0.0,
,,,2.2211862E-3,5.00000000,,,,,2.2211862E-3,0.0,
,,,2.2211871E-3,5.00000000,,,,,2.2211871E-3,0.0,
,,,2.2211883E-3,5.00000000,,,,,2.2211883E-3,0.0,
,,,2.2211892E-3,5.00000000,,,,,2.2211892E-3,0.0,
,,,2.2211901E-3,5.00000000,,,,,2.2211901E-3,0.0,
,,,2.2211911E-3,5.00000000,,,,,2.2211911E-3,0.0,
,,,2.2211922E-3,5.00000000,,,,,2.2211922E-3,0.0,
,,,2.2211932E-3,5.00000000,,,,,2.2211932E-3,0.0,
,,,2.2211941E-3,5.00000000,,,,,2.2211941E-3,0.0,
,,,2.2211953E-3,5.00000000,,,,,2.2211953E-3,0.0,
,,,2.2211962E-3,5.00000000,,,,,2.2211962E-3,0.0,
,,,2.2211971E-3,5.20000029,,,,,2.2211971E-3,0.0,
,,,2.2211981E-3,5.20000029,,,,,2.2211981E-3,0.0,
,,,2.2211992E-3,5.20000029,,,,,2.2211992E-3,0.0,
,,,2.2212001E-3,5.20000029,,,,,2.2212001E-3,0.0,
,,,2.2212011E-3,5.20000029,,,,,2.2212011E-3,0.0,
,,,2.2212022E-3,5.20000029,,,,,2.2212022E-3,0.0,
,,,2.2212032E-3,5.00000000,,,,,2.2212032E-3,0.0,
,,,2.2212041E-3,5.20000029,,,,,2.2212041E-3,0.0,
,,,2.2212053E-3,5.20000029,,,,,2.2212053E-3,0.0,
,,,2.2212062E-3,5.00000000,,,,,2.2212062E-3,0.0,
,,,2.2212071E-3,5.20000029,,,,,2.2212071E-3,0.0,
,,,2.2212081E-3,5.20000029,,,,,2.2212081E-3,0.0,
,,,2.2212092E-3,5.00000000,,,,,2.2212092E-3,0.0,
,,,2.2212102E-3,5.00000000,,,,,2.2212102E-3,0.0,
,,,2.2212111E-3,5.00000000,,,,,2.2212111E-3,0.0,
,,,2.2212123E-3,5.00000000,,,,,2.2212123E-3,0.0,
,,,2.2212132E-3,5.00000000,,,,,2.2212132E-3,0.0,
,,,2.2212141E-3,5.00000000,,,,,2.2212141E-3,0.0,
,,,2.2212151E-3,5.00000000,,,,,2.2212151E-3,0.0,
,,,2.2212162E-3,5.00000000,,,,,2.2212162E-3,0.0,
,,,2.2212171E-3,5.00000000,,,,,2.2212171E-3,0.0,
,,,2.2212181E-3,5.00000000,,,,,2.2212181E-3,0.0,
,,,2.2212192E-3,5.00000000,,,,,2.2212192E-3,0.0,
,,,2.2212202E-3,5.00000000,,,,,2.2212202E-3,0.0,
,,,2.2212211E-3,5.00000000,,,,,2.2212211E-3,0.0,
,,,2.2212223E-3,5.00000000,,,,,2.2212223E-3,0.0,
,,,2.2212232E-3,5.00000000,,,,,2.2212232E-3,0.0,
,,,2.2212241E-3,5.00000000,,,,,2.2212241E-3,0.0,
,,,2.2212251E-3,5.00000000,,,,,2.2212251E-3,0.0,
,,,2.2212262E-3,5.00000000,,,,,2.2212262E-3,0.0,
,,,2.2212272E-3,5.00000000,,,,,2.2212272E-3,0.0,
,,,2.2212281E-3,5.00000000,,,,,2.2212281E-3,0.0,
,,,2.2212293E-3,5.00000000,,,,,2.2212293E-3,0.0,
,,,2.2212302E-3,5.00000000,,,,,2.2212302E-3,0.0,
,,,2.2212311E-3,5.00000000,,,,,2.2212311E-3,0.0,
,,,2.2212320E-3,5.00000000,,,,,2.2212320E-3,0.0,
,,,2.2212332E-3,5.00000000,,,,,2.2212332E-3,0.0,
,,,2.2212341E-3,5.00000000,,,,,2.2212341E-3,0.0,
,,,2.2212351E-3,5.00000000,,,,,2.2212351E-3,0.0,
,,,2.2212362E-3,5.00000000,,,,,2.2212362E-3,0.0,
,,,2.2212372E-3,5.00000000,,,,,2.2212372E-3,0.0,
,,,2.2212381E-3,5.00000000,,,,,2.2212381E-3,0.0,
,,,2.2212393E-3,5.00000000,,,,,2.2212393E-3,0.0,
,,,2.2212402E-3,5.00000000,,,,,2.2212402E-3,0.0,
,,,2.2212411E-3,5.00000000,,,,,2.2212411E-3,0.0,
,,,2.2212421E-3,5.20000029,,,,,2.2212421E-3,0.0,
,,,2.2212432E-3,5.20000029,,,,,2.2212432E-3,0.0,
,,,2.2212442E-3,5.00000000,,,,,2.2212442E-3,0.0,
,,,2.2212451E-3,5.00000000,,,,,2.2212451E-3,0.0,
,,,2.2212462E-3,5.00000000,,,,,2.2212462E-3,0.0,
,,,2.2212472E-3,5.20000029,,,,,2.2212472E-3,0.0,
,,,2.2212481E-3,5.00000000,,,,,2.2212481E-3,0.0,
,,,2.2212490E-3,5.20000029,,,,,2.2212490E-3,0.0,
,,,2.2212502E-3,5.00000000,,,,,2.2212502E-3,0.0,
,,,2.2212511E-3,5.00000000,,,,,2.2212511E-3,0.0,
,,,2.2212521E-3,5.00000000,,,,,2.2212521E-3,0.0,
,,,2.2212532E-3,5.00000000,,,,,2.2212532E-3,0.0,
,,,2.2212542E-3,5.00000000,,,,,2.2212542E-3,0.0,
,,,2.2212551E-3,5.00000000,,,,,2.2212551E-3,0.0,
,,,2.2212563E-3,5.00000000,,,,,2.2212563E-3,0.0,
,,,2.2212572E-3,5.00000000,,,,,2.2212572E-3,0.0,
,,,2.2212581E-3,5.00000000,,,,,2.2212581E-3,0.0,
,,,2.2212591E-3,5.00000000,,,,,2.2212591E-3,0.0,
,,,2.2212602E-3,4.80000019,,,,,2.2212602E-3,0.0,
,,,2.2212612E-3,4.80000019,,,,,2.2212612E-3,0.0,
,,,2.2212621E-3,4.59999990,,,,,2.2212621E-3,0.0,
,,,2.2212632E-3,4.40000010,,,,,2.2212632E-3,0.0,
,,,2.2212642E-3,4.00000000,,,,,2.2212642E-3,0.0,
,,,2.2212651E-3,3.40000010,,,,,2.2212651E-3,0.0,
,,,2.2212663E-3,3.00000000,,,,,2.2212663E-3,0.0,
,,,2.2212672E-3,2.2000000,,,,,2.2212672E-3,-200.00000298E-3,
,,,2.2212681E-3,1.6000000,,,,,2.2212681E-3,-200.00000298E-3,
,,,2.2212691E-3,800.000011921E-3,,,,,2.2212691E-3,-200.00000298E-3,
,,,2.2212702E-3,0.0,,,,,2.2212702E-3,0.0,
,,,2.2212712E-3,-800.000011921E-3,,,,,2.2212712E-3,-200.00000298E-3,
,,,2.2212721E-3,-1.4000000,,,,,2.2212721E-3,0.0,
,,,2.2212733E-3,-2.0000000,,,,,2.2212733E-3,0.0,
,,,2.2212742E-3,-2.6000001,,,,,2.2212742E-3,0.0,
,,,2.2212751E-3,-3.00000000,,,,,2.2212751E-3,0.0,
,,,2.2212761E-3,-3.60000014,,,,,2.2212761E-3,0.0,
,,,2.2212772E-3,-4.00000000,,,,,2.2212772E-3,0.0,
,,,2.2212781E-3,-4.59999990,,,,,2.2212781E-3,0.0,
,,,2.2212791E-3,-5.00000000,,,,,2.2212791E-3,0.0,
,,,2.2212802E-3,-5.40000010,,,,,2.2212802E-3,0.0,
,,,2.2212812E-3,-6.00000000,,,,,2.2212812E-3,0.0,
,,,2.2212821E-3,-6.20000029,,,,,2.2212821E-3,0.0,
,,,2.2212833E-3,-6.59999990,,,,,2.2212833E-3,0.0,
,,,2.2212842E-3,-6.80000019,,,,,2.2212842E-3,-200.00000298E-3,
,,,2.2212851E-3,-7.00000000,,,,,2.2212851E-3,-200.00000298E-3,
,,,2.2212861E-3,-7.20000029,,,,,2.2212861E-3,-200.00000298E-3,
,,,2.2212872E-3,-7.20000029,,,,,2.2212872E-3,-200.00000298E-3,
,,,2.2212882E-3,-7.400000095,,,,,2.2212882E-3,-200.00000298E-3,
,,,2.2212891E-3,-7.400000095,,,,,2.2212891E-3,-200.00000298E-3,
,,,2.2212903E-3,-7.400000095,,,,,2.2212903E-3,0.0,
,,,2.2212912E-3,-7.400000095,,,,,2.2212912E-3,0.0,
,,,2.2212921E-3,-7.400000095,,,,,2.2212921E-3,0.0,
,,,2.2212930E-3,-7.400000095,,,,,2.2212930E-3,0.0,
,,,2.2212942E-3,-7.400000095,,,,,2.2212942E-3,0.0,
,,,2.2212951E-3,-7.400000095,,,,,2.2212951E-3,0.0,
,,,2.2212961E-3,-7.400000095,,,,,2.2212961E-3,0.0,
,,,2.2212972E-3,-7.20000029,,,,,2.2212972E-3,-200.00000298E-3,
,,,2.2212982E-3,-7.20000029,,,,,2.2212982E-3,-200.00000298E-3,
,,,2.2212991E-3,-7.00000000,,,,,2.2212991E-3,0.0,
,,,2.2213003E-3,-6.80000019,,,,,2.2213003E-3,0.0,
,,,2.2213012E-3,-6.80000019,,,,,2.2213012E-3,0.0,
,,,2.2213021E-3,-6.59999990,,,,,2.2213021E-3,0.0,
,,,2.2213031E-3,-6.40000010,,,,,2.2213031E-3,0.0,
,,,2.2213042E-3,-6.40000010,,,,,2.2213042E-3,0.0,
,,,2.2213052E-3,-6.20000029,,,,,2.2213052E-3,0.0,
,,,2.2213061E-3,-6.00000000,,,,,2.2213061E-3,0.0,
,,,2.2213073E-3,-6.00000000,,,,,2.2213073E-3,0.0,
,,,2.2213082E-3,-5.80000019,,,,,2.2213082E-3,0.0,
,,,2.2213091E-3,-5.59999990,,,,,2.2213091E-3,0.0,
,,,2.2213100E-3,-5.59999990,,,,,2.2213100E-3,0.0,
,,,2.2213112E-3,-5.40000010,,,,,2.2213112E-3,0.0,
,,,2.2213121E-3,-5.20000029,,,,,2.2213121E-3,0.0,
,,,2.2213131E-3,-5.00000000,,,,,2.2213131E-3,0.0,
,,,2.2213142E-3,-5.00000000,,,,,2.2213142E-3,0.0,
,,,2.2213152E-3,-4.80000019,,,,,2.2213152E-3,0.0,
,,,2.2213161E-3,-4.80000019,,,,,2.2213161E-3,0.0,
,,,2.2213173E-3,-4.59999990,,,,,2.2213173E-3,200.00000298E-3,
,,,2.2213182E-3,-4.59999990,,,,,2.2213182E-3,200.00000298E-3,
,,,2.2213191E-3,-4.40000010,,,,,2.2213191E-3,200.00000298E-3,
,,,2.2213201E-3,-4.40000010,,,,,2.2213201E-3,0.0,
,,,2.2213212E-3,-4.40000010,,,,,2.2213212E-3,0.0,
,,,2.2213222E-3,-4.40000010,,,,,2.2213222E-3,0.0,
,,,2.2213231E-3,-4.20000029,,,,,2.2213231E-3,0.0,
,,,2.2213242E-3,-4.20000029,,,,,2.2213242E-3,0.0,
,,,2.2213252E-3,-4.20000029,,,,,2.2213252E-3,0.0,
,,,2.2213261E-3,-4.20000029,,,,,2.2213261E-3,0.0,
,,,2.2213273E-3,-4.20000029,,,,,2.2213273E-3,0.0,
,,,2.2213282E-3,-4.40000010,,,,,2.2213282E-3,0.0,
,,,2.2213291E-3,-4.40000010,,,,,2.2213291E-3,0.0,
,,,2.2213301E-3,-4.40000010,,,,,2.2213301E-3,0.0,
,,,2.2213312E-3,-4.40000010,,,,,2.2213312E-3,0.0,
,,,2.2213322E-3,-4.40000010,,,,,2.2213322E-3,0.0,
,,,2.2213331E-3,-4.59999990,,,,,2.2213331E-3,0.0,
,,,2.2213343E-3,-4.59999990,,,,,2.2213343E-3,0.0,
,,,2.2213352E-3,-4.80000019,,,,,2.2213352E-3,0.0,
,,,2.2213361E-3,-4.80000019,,,,,2.2213361E-3,0.0,
,,,2.2213371E-3,-4.80000019,,,,,2.2213371E-3,0.0,
,,,2.2213382E-3,-5.00000000,,,,,2.2213382E-3,0.0,
,,,2.2213391E-3,-5.00000000,,,,,2.2213391E-3,0.0,
,,,2.2213401E-3,-5.00000000,,,,,2.2213401E-3,0.0,
,,,2.2213412E-3,-5.20000029,,,,,2.2213412E-3,0.0,
,,,2.2213422E-3,-5.20000029,,,,,2.2213422E-3,0.0,
,,,2.2213431E-3,-5.20000029,,,,,2.2213431E-3,0.0,
,,,2.2213443E-3,-5.20000029,,,,,2.2213443E-3,0.0,
,,,2.2213452E-3,-5.20000029,,,,,2.2213452E-3,0.0,
,,,2.2213461E-3,-5.20000029,,,,,2.2213461E-3,0.0,
,,,2.2213471E-3,-5.40000010,,,,,2.2213471E-3,0.0,
,,,2.2213482E-3,-5.40000010,,,,,2.2213482E-3,0.0,
,,,2.2213492E-3,-5.40000010,,,,,2.2213492E-3,0.0,
,,,2.2213501E-3,-5.40000010,,,,,2.2213501E-3,0.0,
,,,2.2213513E-3,-5.40000010,,,,,2.2213513E-3,0.0,
,,,2.2213522E-3,-5.20000029,,,,,2.2213522E-3,0.0,
,,,2.2213531E-3,-5.20000029,,,,,2.2213531E-3,200.00000298E-3,
,,,2.2213541E-3,-5.20000029,,,,,2.2213541E-3,200.00000298E-3,
,,,2.2213552E-3,-5.20000029,,,,,2.2213552E-3,200.00000298E-3,
,,,2.2213561E-3,-5.20000029,,,,,2.2213561E-3,200.00000298E-3,
,,,2.2213571E-3,-5.20000029,,,,,2.2213571E-3,0.0,
,,,2.2213582E-3,-5.00000000,,,,,2.2213582E-3,0.0,
,,,2.2213592E-3,-5.00000000,,,,,2.2213592E-3,0.0,
,,,2.2213601E-3,-5.00000000,,,,,2.2213601E-3,0.0,
,,,2.2213613E-3,-5.00000000,,,,,2.2213613E-3,0.0,
,,,2.2213622E-3,-5.00000000,,,,,2.2213622E-3,0.0,
,,,2.2213631E-3,-5.00000000,,,,,2.2213631E-3,0.0,
,,,2.2213641E-3,-5.00000000,,,,,2.2213641E-3,0.0,
,,,2.2213652E-3,-5.00000000,,,,,2.2213652E-3,0.0,
,,,2.2213662E-3,-5.00000000,,,,,2.2213662E-3,0.0,
,,,2.2213671E-3,-5.00000000,,,,,2.2213671E-3,0.0,
,,,2.2213683E-3,-5.00000000,,,,,2.2213683E-3,0.0,
,,,2.2213692E-3,-5.00000000,,,,,2.2213692E-3,0.0,
,,,2.2213701E-3,-5.00000000,,,,,2.2213701E-3,0.0,
,,,2.2213710E-3,-5.00000000,,,,,2.2213710E-3,0.0,
,,,2.2213722E-3,-5.20000029,,,,,2.2213722E-3,0.0,
,,,2.2213731E-3,-5.20000029,,,,,2.2213731E-3,0.0,
,,,2.2213741E-3,-5.20000029,,,,,2.2213741E-3,0.0,
,,,2.2213752E-3,-5.20000029,,,,,2.2213752E-3,0.0,
,,,2.2213762E-3,-5.20000029,,,,,2.2213762E-3,0.0,
,,,2.2213771E-3,-5.20000029,,,,,2.2213771E-3,0.0,
,,,2.2213783E-3,-5.20000029,,,,,2.2213783E-3,0.0,
,,,2.2213792E-3,-5.20000029,,,,,2.2213792E-3,0.0,
,,,2.2213801E-3,-5.20000029,,,,,2.2213801E-3,0.0,
,,,2.2213811E-3,-5.20000029,,,,,2.2213811E-3,0.0,
,,,2.2213822E-3,-5.20000029,,,,,2.2213822E-3,0.0,
,,,2.2213832E-3,-5.20000029,,,,,2.2213832E-3,0.0,
,,,2.2213841E-3,-5.20000029,,,,,2.2213841E-3,0.0,
,,,2.2213852E-3,-5.20000029,,,,,2.2213852E-3,0.0,
,,,2.2213862E-3,-5.20000029,,,,,2.2213862E-3,0.0,
