PHSX536/Final/data/voltage_sweep/10mV.csv

Record Length,2500,Points,-169.99999934E-6,-10.0000007E-3,,Record Length,2500,Points,-169.99999934E-6,-4.00000019E-3,
Sample Interval,1.000000E-6,s,-169.00000628E-6,-8.000000380E-3,,Sample Interval,1.000000E-6,s,-169.00000628E-6,-4.00000019E-3,
Trigger Point,169.99999977,Samples,-167.99999867E-6,-10.0000007E-3,,Trigger Point,169.99999977,Samples,-167.99999867E-6,-4.00000019E-3,
,,,-167.00000560E-6,-10.0000007E-3,,,,,-167.00000560E-6,-4.00000019E-3,
,,,-165.99999799E-6,-10.0000007E-3,,,,,-165.99999799E-6,-4.00000019E-3,
,,,-165.00000493E-6,-10.0000007E-3,,,,,-165.00000493E-6,-4.00000019E-3,
Source,CH1,,-163.99999731E-6,-10.0000007E-3,,Source,CH2,,-163.99999731E-6,-4.00000019E-3,
Vertical Units,Volts,,-163.00000425E-6,-8.000000380E-3,,Vertical Units,Volts,,-163.00000425E-6,-4.00000019E-3,
Vertical Scale,50.00000237E-3,,-161.99999664E-6,-10.0000007E-3,,Vertical Scale,50.00000237E-3,,-161.99999664E-6,-4.00000019E-3,
Vertical Offset,0,,-161.00000357E-6,-10.0000007E-3,,Vertical Offset,0,,-161.00000357E-6,-4.00000019E-3,
Horizontal Units,s,,-159.99999596E-6,-10.0000007E-3,,Horizontal Units,s,,-159.99999596E-6,-4.00000019E-3,
Horizontal Scale,249.99999937E-6,,-159.00000290E-6,-8.000000380E-3,,Horizontal Scale,249.99999937E-6,,-159.00000290E-6,-4.00000019E-3,
Pt Fmt,Y,,-157.99999528E-6,-10.0000007E-3,,Pt Fmt,Y,,-157.99999528E-6,-4.00000019E-3,
Yzero,0.0,,-157.00000222E-6,-10.0000007E-3,,Yzero,40.00000000E-3,,-157.00000222E-6,-4.00000019E-3,
Probe Atten,1.000000,,-155.99999460E-6,-10.0000007E-3,,Probe Atten,1.000000,,-155.99999460E-6,-4.00000019E-3,
,,,-155.00000154E-6,-8.000000380E-3,,,,,-155.00000154E-6,-4.00000019E-3,
Note,TDS 2002C - 12:06:23 PM   5/12/2025,,-153.99999393E-6,-8.000000380E-3,,Note,TDS 2002C - 12:06:23 PM   5/12/2025,,-153.99999393E-6,-4.00000019E-3,
,,,-153.00000086E-6,-10.0000007E-3,,,,,-153.00000086E-6,-4.00000019E-3,
,,,-151.99999325E-6,-8.000000380E-3,,,,,-151.99999325E-6,-4.00000019E-3,
,,,-151.00000019E-6,-10.0000007E-3,,,,,-151.00000019E-6,-4.00000019E-3,
,,,-149.99999257E-6,-10.0000007E-3,,,,,-149.99999257E-6,-4.00000019E-3,
,,,-148.99999951E-6,-10.0000007E-3,,,,,-148.99999951E-6,-4.00000019E-3,
,,,-148.0000064E-6,-10.0000007E-3,,,,,-148.0000064E-6,-4.00000019E-3,
,,,-146.9999988E-6,-8.000000380E-3,,,,,-146.9999988E-6,-4.00000019E-3,
,,,-146.0000058E-6,-10.0000007E-3,,,,,-146.0000058E-6,-4.00000019E-3,
,,,-144.9999982E-6,-10.0000007E-3,,,,,-144.9999982E-6,-2.0000001E-3,
,,,-144.0000051E-6,-10.0000007E-3,,,,,-144.0000051E-6,-4.00000019E-3,
,,,-142.9999975E-6,-8.000000380E-3,,,,,-142.9999975E-6,-4.00000019E-3,
,,,-142.0000044E-6,-8.000000380E-3,,,,,-142.0000044E-6,-4.00000019E-3,
,,,-140.9999968E-6,-10.0000007E-3,,,,,-140.9999968E-6,-4.00000019E-3,
,,,-140.0000037E-6,-8.000000380E-3,,,,,-140.0000037E-6,-2.0000001E-3,
,,,-138.9999961E-6,-8.000000380E-3,,,,,-138.9999961E-6,-4.00000019E-3,
,,,-138.0000031E-6,-10.0000007E-3,,,,,-138.0000031E-6,-4.00000019E-3,
,,,-136.9999954E-6,-10.0000007E-3,,,,,-136.9999954E-6,-4.00000019E-3,
,,,-136.0000024E-6,-10.0000007E-3,,,,,-136.0000024E-6,-4.00000019E-3,
,,,-134.9999948E-6,-10.0000007E-3,,,,,-134.9999948E-6,-4.00000019E-3,
,,,-134.0000017E-6,-10.0000007E-3,,,,,-134.0000017E-6,-4.00000019E-3,
,,,-132.9999941E-6,-8.000000380E-3,,,,,-132.9999941E-6,-4.00000019E-3,
,,,-132.0000010E-6,-10.0000007E-3,,,,,-132.0000010E-6,-4.00000019E-3,
,,,-130.9999934E-6,-8.000000380E-3,,,,,-130.9999934E-6,-4.00000019E-3,
,,,-130.0000004E-6,-10.0000007E-3,,,,,-130.0000004E-6,-4.00000019E-3,
,,,-128.9999927E-6,-10.0000007E-3,,,,,-128.9999927E-6,-4.00000019E-3,
,,,-127.9999997E-6,-10.0000007E-3,,,,,-127.9999997E-6,-4.00000019E-3,
,,,-127.0000066E-6,-10.0000007E-3,,,,,-127.0000066E-6,-4.00000019E-3,
,,,-125.9999990E-6,-8.000000380E-3,,,,,-125.9999990E-6,-4.00000019E-3,
,,,-125.0000059E-6,-10.0000007E-3,,,,,-125.0000059E-6,-4.00000019E-3,
,,,-123.9999983E-6,-8.000000380E-3,,,,,-123.9999983E-6,-4.00000019E-3,
,,,-123.0000053E-6,-8.000000380E-3,,,,,-123.0000053E-6,-4.00000019E-3,
,,,-121.9999976E-6,-8.000000380E-3,,,,,-121.9999976E-6,-4.00000019E-3,
,,,-120.9999973E-6,-8.000000380E-3,,,,,-120.9999973E-6,-4.00000019E-3,
,,,-119.9999970E-6,-10.0000007E-3,,,,,-119.9999970E-6,-4.00000019E-3,
,,,-118.9999966E-6,-10.0000007E-3,,,,,-118.9999966E-6,-4.00000019E-3,
,,,-117.9999963E-6,-10.0000007E-3,,,,,-117.9999963E-6,-4.00000019E-3,
,,,-116.9999960E-6,-10.0000007E-3,,,,,-116.9999960E-6,-4.00000019E-3,
,,,-116.0000029E-6,-10.0000007E-3,,,,,-116.0000029E-6,-4.00000019E-3,
,,,-115.0000026E-6,-10.0000007E-3,,,,,-115.0000026E-6,-4.00000019E-3,
,,,-114.0000022E-6,-10.0000007E-3,,,,,-114.0000022E-6,-4.00000019E-3,
,,,-113.0000019E-6,-10.0000007E-3,,,,,-113.0000019E-6,-4.00000019E-3,
,,,-112.0000015E-6,-10.0000007E-3,,,,,-112.0000015E-6,-4.00000019E-3,
,,,-111.0000012E-6,-10.0000007E-3,,,,,-111.0000012E-6,-4.00000019E-3,
,,,-110.0000009E-6,-10.0000007E-3,,,,,-110.0000009E-6,-4.00000019E-3,
,,,-109.0000005E-6,-8.000000380E-3,,,,,-109.0000005E-6,-4.00000019E-3,
,,,-108.0000002E-6,-10.0000007E-3,,,,,-108.0000002E-6,-4.00000019E-3,
,,,-106.9999998E-6,-10.0000007E-3,,,,,-106.9999998E-6,-4.00000019E-3,
,,,-105.9999995E-6,-8.000000380E-3,,,,,-105.9999995E-6,-4.00000019E-3,
,,,-104.9999992E-6,-8.000000380E-3,,,,,-104.9999992E-6,-4.00000019E-3,
,,,-103.9999988E-6,-10.0000007E-3,,,,,-103.9999988E-6,-4.00000019E-3,
,,,-102.9999985E-6,-10.0000007E-3,,,,,-102.9999985E-6,-4.00000019E-3,
,,,-101.9999982E-6,-8.000000380E-3,,,,,-101.9999982E-6,-4.00000019E-3,
,,,-100.9999978E-6,-8.000000380E-3,,,,,-100.9999978E-6,-4.00000019E-3,
,,,-99.999997474E-6,-8.000000380E-3,,,,,-99.999997474E-6,-4.00000019E-3,
,,,-98.999997135E-6,-10.0000007E-3,,,,,-98.999997135E-6,-4.00000019E-3,
,,,-97.999996797E-6,-10.0000007E-3,,,,,-97.999996797E-6,-4.00000019E-3,
,,,-96.999996458E-6,-8.000000380E-3,,,,,-96.999996458E-6,-4.00000019E-3,
,,,-95.999996120E-6,-10.0000007E-3,,,,,-95.999996120E-6,-4.00000019E-3,
,,,-95.000003057E-6,-10.0000007E-3,,,,,-95.000003057E-6,-4.00000019E-3,
,,,-94.000002719E-6,-8.000000380E-3,,,,,-94.000002719E-6,-4.00000019E-3,
,,,-93.000002380E-6,-10.0000007E-3,,,,,-93.000002380E-6,-4.00000019E-3,
,,,-92.000002041E-6,-10.0000007E-3,,,,,-92.000002041E-6,-4.00000019E-3,
,,,-91.000001703E-6,-10.0000007E-3,,,,,-91.000001703E-6,-4.00000019E-3,
,,,-90.000001364E-6,-10.0000007E-3,,,,,-90.000001364E-6,-4.00000019E-3,
,,,-89.000001026E-6,-10.0000007E-3,,,,,-89.000001026E-6,-4.00000019E-3,
,,,-88.000000687E-6,-8.000000380E-3,,,,,-88.000000687E-6,-4.00000019E-3,
,,,-87.000000349E-6,-10.0000007E-3,,,,,-87.000000349E-6,-4.00000019E-3,
,,,-86.000000010E-6,-10.0000007E-3,,,,,-86.000000010E-6,-4.00000019E-3,
,,,-84.999999672E-6,-10.0000007E-3,,,,,-84.999999672E-6,-4.00000019E-3,
,,,-83.999999333E-6,-10.0000007E-3,,,,,-83.999999333E-6,-4.00000019E-3,
,,,-82.999998995E-6,-8.000000380E-3,,,,,-82.999998995E-6,-4.00000019E-3,
,,,-81.999998656E-6,-10.0000007E-3,,,,,-81.999998656E-6,-4.00000019E-3,
,,,-80.999998318E-6,-8.000000380E-3,,,,,-80.999998318E-6,-4.00000019E-3,
,,,-79.999997979E-6,-10.0000007E-3,,,,,-79.999997979E-6,-4.00000019E-3,
,,,-78.999997640E-6,-8.000000380E-3,,,,,-78.999997640E-6,-4.00000019E-3,
,,,-77.999997302E-6,-8.000000380E-3,,,,,-77.999997302E-6,-4.00000019E-3,
,,,-76.999996963E-6,-10.0000007E-3,,,,,-76.999996963E-6,-4.00000019E-3,
,,,-75.999996625E-6,-10.0000007E-3,,,,,-75.999996625E-6,-4.00000019E-3,
,,,-74.999996286E-6,-10.0000007E-3,,,,,-74.999996286E-6,-4.00000019E-3,
,,,-73.999995948E-6,-10.0000007E-3,,,,,-73.999995948E-6,-2.0000001E-3,
,,,-73.000002885E-6,-10.0000007E-3,,,,,-73.000002885E-6,-4.00000019E-3,
,,,-72.000002547E-6,-10.0000007E-3,,,,,-72.000002547E-6,-4.00000019E-3,
,,,-71.000002208E-6,-10.0000007E-3,,,,,-71.000002208E-6,-2.0000001E-3,
,,,-70.000001870E-6,-10.0000007E-3,,,,,-70.000001870E-6,-4.00000019E-3,
,,,-69.000001531E-6,-10.0000007E-3,,,,,-69.000001531E-6,-4.00000019E-3,
,,,-68.000001193E-6,-8.000000380E-3,,,,,-68.000001193E-6,-4.00000019E-3,
,,,-67.000000854E-6,-10.0000007E-3,,,,,-67.000000854E-6,-4.00000019E-3,
,,,-66.000000515E-6,-10.0000007E-3,,,,,-66.000000515E-6,-4.00000019E-3,
,,,-65.000000177E-6,-10.0000007E-3,,,,,-65.000000177E-6,-4.00000019E-3,
,,,-63.999999838E-6,-8.000000380E-3,,,,,-63.999999838E-6,-4.00000019E-3,
,,,-62.999999500E-6,-10.0000007E-3,,,,,-62.999999500E-6,-4.00000019E-3,
,,,-61.999999161E-6,-10.0000007E-3,,,,,-61.999999161E-6,-4.00000019E-3,
,,,-60.999998823E-6,-8.000000380E-3,,,,,-60.999998823E-6,-4.00000019E-3,
,,,-59.999998484E-6,-8.000000380E-3,,,,,-59.999998484E-6,-4.00000019E-3,
,,,-58.999998146E-6,-10.0000007E-3,,,,,-58.999998146E-6,-4.00000019E-3,
,,,-57.999997807E-6,-10.0000007E-3,,,,,-57.999997807E-6,-4.00000019E-3,
,,,-57.000001107E-6,-10.0000007E-3,,,,,-57.000001107E-6,-4.00000019E-3,
,,,-56.000000768E-6,-10.0000007E-3,,,,,-56.000000768E-6,-4.00000019E-3,
,,,-55.000000430E-6,-10.0000007E-3,,,,,-55.000000430E-6,-4.00000019E-3,
,,,-54.00000009E-6,-8.000000380E-3,,,,,-54.00000009E-6,-4.00000019E-3,
,,,-52.99999975E-6,-8.000000380E-3,,,,,-52.99999975E-6,-4.00000019E-3,
,,,-51.99999941E-6,-8.000000380E-3,,,,,-51.99999941E-6,-4.00000019E-3,
,,,-50.99999908E-6,-8.000000380E-3,,,,,-50.99999908E-6,-4.00000019E-3,
,,,-49.99999874E-6,-10.0000007E-3,,,,,-49.99999874E-6,-4.00000019E-3,
,,,-48.99999840E-6,-10.0000007E-3,,,,,-48.99999840E-6,-4.00000019E-3,
,,,-47.99999806E-6,-10.0000007E-3,,,,,-47.99999806E-6,-4.00000019E-3,
,,,-47.00000136E-6,-8.000000380E-3,,,,,-47.00000136E-6,-4.00000019E-3,
,,,-46.00000102E-6,-10.0000007E-3,,,,,-46.00000102E-6,-4.00000019E-3,
,,,-45.00000068E-6,-10.0000007E-3,,,,,-45.00000068E-6,-4.00000019E-3,
,,,-44.00000034E-6,-10.0000007E-3,,,,,-44.00000034E-6,-4.00000019E-3,
,,,-43.00000001E-6,-10.0000007E-3,,,,,-43.00000001E-6,-4.00000019E-3,
,,,-41.99999967E-6,-8.000000380E-3,,,,,-41.99999967E-6,-4.00000019E-3,
,,,-40.99999933E-6,-10.0000007E-3,,,,,-40.99999933E-6,-4.00000019E-3,
,,,-39.99999899E-6,-10.0000007E-3,,,,,-39.99999899E-6,-4.00000019E-3,
,,,-38.99999865E-6,-10.0000007E-3,,,,,-38.99999865E-6,-4.00000019E-3,
,,,-37.99999831E-6,-10.0000007E-3,,,,,-37.99999831E-6,-4.00000019E-3,
,,,-36.99999797E-6,-10.0000007E-3,,,,,-36.99999797E-6,-4.00000019E-3,
,,,-36.00000127E-6,-10.0000007E-3,,,,,-36.00000127E-6,-4.00000019E-3,
,,,-35.00000093E-6,-10.0000007E-3,,,,,-35.00000093E-6,-4.00000019E-3,
,,,-34.00000060E-6,-8.000000380E-3,,,,,-34.00000060E-6,-4.00000019E-3,
,,,-33.00000026E-6,-10.0000007E-3,,,,,-33.00000026E-6,-4.00000019E-3,
,,,-31.99999992E-6,-10.0000007E-3,,,,,-31.99999992E-6,-4.00000019E-3,
,,,-30.99999958E-6,-10.0000007E-3,,,,,-30.99999958E-6,-4.00000019E-3,
,,,-29.99999924E-6,-8.000000380E-3,,,,,-29.99999924E-6,-4.00000019E-3,
,,,-28.99999890E-6,-10.0000007E-3,,,,,-28.99999890E-6,-4.00000019E-3,
,,,-28.00000038E-6,-8.000000380E-3,,,,,-28.00000038E-6,-4.00000019E-3,
,,,-27.00000005E-6,-10.0000007E-3,,,,,-27.00000005E-6,-4.00000019E-3,
,,,-25.99999971E-6,-10.0000007E-3,,,,,-25.99999971E-6,-4.00000019E-3,
,,,-24.99999937E-6,-10.0000007E-3,,,,,-24.99999937E-6,-2.0000001E-3,
,,,-23.99999903E-6,-8.000000380E-3,,,,,-23.99999903E-6,-4.00000019E-3,
,,,-23.00000051E-6,-10.0000007E-3,,,,,-23.00000051E-6,-4.00000019E-3,
,,,-22.00000017E-6,-10.0000007E-3,,,,,-22.00000017E-6,-4.00000019E-3,
,,,-20.99999983E-6,-10.0000007E-3,,,,,-20.99999983E-6,-2.0000001E-3,
,,,-19.9999995E-6,-10.0000007E-3,,,,,-19.9999995E-6,-4.00000019E-3,
,,,-18.9999992E-6,-8.000000380E-3,,,,,-18.9999992E-6,-2.0000001E-3,
,,,-17.9999988E-6,-10.0000007E-3,,,,,-17.9999988E-6,-4.00000019E-3,
,,,-17.0000003E-6,-10.0000007E-3,,,,,-17.0000003E-6,-4.00000019E-3,
,,,-16.0000000E-6,-10.0000007E-3,,,,,-16.0000000E-6,-4.00000019E-3,
,,,-14.9999996E-6,-10.0000007E-3,,,,,-14.9999996E-6,-4.00000019E-3,
,,,-13.9999993E-6,-10.0000007E-3,,,,,-13.9999993E-6,-4.00000019E-3,
,,,-12.9999999E-6,-10.0000007E-3,,,,,-12.9999999E-6,-4.00000019E-3,
,,,-11.9999995E-6,-10.0000007E-3,,,,,-11.9999995E-6,-4.00000019E-3,
,,,-11.0000001E-6,-10.0000007E-3,,,,,-11.0000001E-6,-4.00000019E-3,
,,,-9.999999747E-6,-10.0000007E-3,,,,,-9.999999747E-6,-4.00000019E-3,
,,,-8.999999409E-6,-10.0000007E-3,,,,,-8.999999409E-6,-4.00000019E-3,
,,,-7.999999980E-6,-8.000000380E-3,,,,,-7.999999980E-6,-4.00000019E-3,
,,,-6.99999964E-6,-10.0000007E-3,,,,,-6.99999964E-6,-2.0000001E-3,
,,,-5.99999976E-6,-8.000000380E-3,,,,,-5.99999976E-6,-4.00000019E-3,
,,,-4.99999987E-6,-8.000000380E-3,,,,,-4.99999987E-6,-4.00000019E-3,
,,,-3.99999954E-6,-8.000000380E-3,,,,,-3.99999954E-6,-4.00000019E-3,
,,,-2.99999965E-6,-8.000000380E-3,,,,,-2.99999965E-6,-2.0000001E-3,
,,,-1.9999998E-6,-10.0000007E-3,,,,,-1.9999998E-6,-2.0000001E-3,
,,,-999.999770102E-9,-10.0000007E-3,,,,,-999.999770102E-9,-2.0000001E-3,
,,,227.37367249E-15,-8.000000380E-3,,,,,227.37367249E-15,-4.00000019E-3,
,,,1.0000002E-6,-10.0000007E-3,,,,,1.0000002E-6,-4.00000019E-3,
,,,2.0000002E-6,-8.000000380E-3,,,,,2.0000002E-6,-4.00000019E-3,
,,,3.00000011E-6,10.0000007E-3,,,,,3.00000011E-6,-2.0000001E-3,
,,,4.00000044E-6,10.0000007E-3,,,,,4.00000044E-6,-4.00000019E-3,
,,,5.00000033E-6,10.0000007E-3,,,,,5.00000033E-6,-4.00000019E-3,
,,,6.00000021E-6,10.0000007E-3,,,,,6.00000021E-6,-4.00000019E-3,
,,,7.00000010E-6,10.0000007E-3,,,,,7.00000010E-6,-4.00000019E-3,
,,,7.999999980E-6,12.0000001E-3,,,,,7.999999980E-6,-4.00000019E-3,
,,,9.000000318E-6,10.0000007E-3,,,,,9.000000318E-6,-4.00000019E-3,
,,,9.999999747E-6,10.0000007E-3,,,,,9.999999747E-6,-4.00000019E-3,
,,,11.0000001E-6,10.0000007E-3,,,,,11.0000001E-6,-4.00000019E-3,
,,,12.0000004E-6,10.0000007E-3,,,,,12.0000004E-6,-2.0000001E-3,
,,,12.9999999E-6,10.0000007E-3,,,,,12.9999999E-6,-4.00000019E-3,
,,,14.0000002E-6,10.0000007E-3,,,,,14.0000002E-6,-4.00000019E-3,
,,,15.0000005E-6,12.0000001E-3,,,,,15.0000005E-6,-2.0000001E-3,
,,,16.0000000E-6,12.0000001E-3,,,,,16.0000000E-6,-2.0000001E-3,
,,,17.0000003E-6,12.0000001E-3,,,,,17.0000003E-6,-2.0000001E-3,
,,,18.0000006E-6,10.0000007E-3,,,,,18.0000006E-6,0.0,
,,,19.0000010E-6,12.0000001E-3,,,,,19.0000010E-6,0.0,
,,,19.9999995E-6,12.0000001E-3,,,,,19.9999995E-6,0.0,
,,,20.99999983E-6,10.0000007E-3,,,,,20.99999983E-6,0.0,
,,,22.00000017E-6,10.0000007E-3,,,,,22.00000017E-6,0.0,
,,,23.00000051E-6,10.0000007E-3,,,,,23.00000051E-6,2.0000001E-3,
,,,24.00000085E-6,10.0000007E-3,,,,,24.00000085E-6,2.0000001E-3,
,,,24.99999937E-6,10.0000007E-3,,,,,24.99999937E-6,2.0000001E-3,
,,,25.99999971E-6,12.0000001E-3,,,,,25.99999971E-6,2.0000001E-3,
,,,27.00000005E-6,12.0000001E-3,,,,,27.00000005E-6,4.00000019E-3,
,,,28.00000038E-6,10.0000007E-3,,,,,28.00000038E-6,2.0000001E-3,
,,,29.00000072E-6,12.0000001E-3,,,,,29.00000072E-6,4.00000019E-3,
,,,29.99999924E-6,10.0000007E-3,,,,,29.99999924E-6,4.00000019E-3,
,,,30.99999958E-6,12.0000001E-3,,,,,30.99999958E-6,4.00000019E-3,
,,,31.99999992E-6,10.0000007E-3,,,,,31.99999992E-6,4.00000019E-3,
,,,33.00000026E-6,12.0000001E-3,,,,,33.00000026E-6,4.00000019E-3,
,,,34.00000060E-6,10.0000007E-3,,,,,34.00000060E-6,6.00000005E-3,
,,,35.00000093E-6,12.0000001E-3,,,,,35.00000093E-6,6.00000005E-3,
,,,36.00000127E-6,10.0000007E-3,,,,,36.00000127E-6,6.00000005E-3,
,,,37.00000161E-6,12.0000001E-3,,,,,37.00000161E-6,6.00000005E-3,
,,,37.99999831E-6,12.0000001E-3,,,,,37.99999831E-6,6.00000005E-3,
,,,38.99999865E-6,10.0000007E-3,,,,,38.99999865E-6,8.000000380E-3,
,,,39.99999899E-6,10.0000007E-3,,,,,39.99999899E-6,8.000000380E-3,
,,,40.99999933E-6,10.0000007E-3,,,,,40.99999933E-6,8.000000380E-3,
,,,41.99999967E-6,10.0000007E-3,,,,,41.99999967E-6,8.000000380E-3,
,,,43.00000001E-6,10.0000007E-3,,,,,43.00000001E-6,8.000000380E-3,
,,,44.00000034E-6,10.0000007E-3,,,,,44.00000034E-6,8.000000380E-3,
,,,45.00000068E-6,10.0000007E-3,,,,,45.00000068E-6,8.000000380E-3,
,,,46.00000102E-6,10.0000007E-3,,,,,46.00000102E-6,10.0000007E-3,
,,,47.00000136E-6,12.0000001E-3,,,,,47.00000136E-6,10.0000007E-3,
,,,48.00000170E-6,10.0000007E-3,,,,,48.00000170E-6,10.0000007E-3,
,,,48.99999840E-6,12.0000001E-3,,,,,48.99999840E-6,10.0000007E-3,
,,,49.99999874E-6,10.0000007E-3,,,,,49.99999874E-6,10.0000007E-3,
,,,50.99999908E-6,12.0000001E-3,,,,,50.99999908E-6,10.0000007E-3,
,,,51.99999941E-6,10.0000007E-3,,,,,51.99999941E-6,12.0000001E-3,
,,,52.99999975E-6,12.0000001E-3,,,,,52.99999975E-6,12.0000001E-3,
,,,54.00000009E-6,12.0000001E-3,,,,,54.00000009E-6,12.0000001E-3,
,,,55.000000430E-6,10.0000007E-3,,,,,55.000000430E-6,12.0000001E-3,
,,,56.000000768E-6,12.0000001E-3,,,,,56.000000768E-6,10.0000007E-3,
,,,57.000001107E-6,12.0000001E-3,,,,,57.000001107E-6,12.0000001E-3,
,,,58.000001445E-6,12.0000001E-3,,,,,58.000001445E-6,12.0000001E-3,
,,,59.000001784E-6,10.0000007E-3,,,,,59.000001784E-6,12.0000001E-3,
,,,59.999998484E-6,10.0000007E-3,,,,,59.999998484E-6,10.0000007E-3,
,,,60.999998823E-6,12.0000001E-3,,,,,60.999998823E-6,12.0000001E-3,
,,,61.999999161E-6,12.0000001E-3,,,,,61.999999161E-6,12.0000001E-3,
,,,62.999999500E-6,12.0000001E-3,,,,,62.999999500E-6,12.0000001E-3,
,,,63.999999838E-6,12.0000001E-3,,,,,63.999999838E-6,12.0000001E-3,
,,,65.000000177E-6,10.0000007E-3,,,,,65.000000177E-6,12.0000001E-3,
,,,66.000000515E-6,12.0000001E-3,,,,,66.000000515E-6,12.0000001E-3,
,,,67.000000854E-6,10.0000007E-3,,,,,67.000000854E-6,12.0000001E-3,
,,,68.000001193E-6,12.0000001E-3,,,,,68.000001193E-6,12.0000001E-3,
,,,69.000001531E-6,10.0000007E-3,,,,,69.000001531E-6,12.0000001E-3,
,,,70.000001870E-6,12.0000001E-3,,,,,70.000001870E-6,12.0000001E-3,
,,,71.000002208E-6,10.0000007E-3,,,,,71.000002208E-6,12.0000001E-3,
,,,72.000002547E-6,10.0000007E-3,,,,,72.000002547E-6,10.0000007E-3,
,,,73.000002885E-6,10.0000007E-3,,,,,73.000002885E-6,10.0000007E-3,
,,,74.000003224E-6,12.0000001E-3,,,,,74.000003224E-6,10.0000007E-3,
,,,75.000003562E-6,10.0000007E-3,,,,,75.000003562E-6,10.0000007E-3,
,,,75.999996625E-6,12.0000001E-3,,,,,75.999996625E-6,10.0000007E-3,
,,,76.999996963E-6,12.0000001E-3,,,,,76.999996963E-6,10.0000007E-3,
,,,77.999997302E-6,10.0000007E-3,,,,,77.999997302E-6,10.0000007E-3,
,,,78.999997640E-6,12.0000001E-3,,,,,78.999997640E-6,10.0000007E-3,
,,,79.999997979E-6,12.0000001E-3,,,,,79.999997979E-6,10.0000007E-3,
,,,80.999998318E-6,12.0000001E-3,,,,,80.999998318E-6,10.0000007E-3,
,,,81.999998656E-6,10.0000007E-3,,,,,81.999998656E-6,10.0000007E-3,
,,,82.999998995E-6,12.0000001E-3,,,,,82.999998995E-6,8.000000380E-3,
,,,83.999999333E-6,10.0000007E-3,,,,,83.999999333E-6,8.000000380E-3,
,,,84.999999672E-6,10.0000007E-3,,,,,84.999999672E-6,8.000000380E-3,
,,,86.000000010E-6,12.0000001E-3,,,,,86.000000010E-6,8.000000380E-3,
,,,87.000000349E-6,10.0000007E-3,,,,,87.000000349E-6,8.000000380E-3,
,,,88.000000687E-6,12.0000001E-3,,,,,88.000000687E-6,8.000000380E-3,
,,,89.000001026E-6,12.0000001E-3,,,,,89.000001026E-6,8.000000380E-3,
,,,90.000001364E-6,10.0000007E-3,,,,,90.000001364E-6,8.000000380E-3,
,,,91.000001703E-6,12.0000001E-3,,,,,91.000001703E-6,8.000000380E-3,
,,,92.000002041E-6,12.0000001E-3,,,,,92.000002041E-6,6.00000005E-3,
,,,93.000002380E-6,12.0000001E-3,,,,,93.000002380E-6,6.00000005E-3,
,,,94.000002719E-6,10.0000007E-3,,,,,94.000002719E-6,6.00000005E-3,
,,,95.000003057E-6,10.0000007E-3,,,,,95.000003057E-6,6.00000005E-3,
,,,96.000003396E-6,10.0000007E-3,,,,,96.000003396E-6,6.00000005E-3,
,,,96.999996458E-6,10.0000007E-3,,,,,96.999996458E-6,6.00000005E-3,
,,,97.999996797E-6,12.0000001E-3,,,,,97.999996797E-6,6.00000005E-3,
,,,98.999997135E-6,10.0000007E-3,,,,,98.999997135E-6,6.00000005E-3,
,,,99.999997474E-6,10.0000007E-3,,,,,99.999997474E-6,6.00000005E-3,
,,,100.9999978E-6,12.0000001E-3,,,,,100.9999978E-6,4.00000019E-3,
,,,101.9999982E-6,10.0000007E-3,,,,,101.9999982E-6,4.00000019E-3,
,,,102.9999985E-6,12.0000001E-3,,,,,102.9999985E-6,4.00000019E-3,
,,,103.9999988E-6,10.0000007E-3,,,,,103.9999988E-6,4.00000019E-3,
,,,104.9999992E-6,12.0000001E-3,,,,,104.9999992E-6,4.00000019E-3,
,,,105.9999995E-6,10.0000007E-3,,,,,105.9999995E-6,4.00000019E-3,
,,,106.9999998E-6,10.0000007E-3,,,,,106.9999998E-6,4.00000019E-3,
,,,108.0000002E-6,12.0000001E-3,,,,,108.0000002E-6,4.00000019E-3,
,,,109.0000005E-6,10.0000007E-3,,,,,109.0000005E-6,4.00000019E-3,
,,,110.0000009E-6,10.0000007E-3,,,,,110.0000009E-6,4.00000019E-3,
