PHSX536/Final/data/voltage_sweep/3000mV.csv

Record Length,2500,Points,-169.99999934E-6,-3.00000000,,Record Length,2500,Points,-169.99999934E-6,-1.3600000,
Sample Interval,1.000000E-6,s,-169.00000628E-6,-3.00000000,,Sample Interval,1.000000E-6,s,-169.00000628E-6,-1.3600000,
Trigger Point,169.99999977,Samples,-167.99999867E-6,-3.00000000,,Trigger Point,169.99999977,Samples,-167.99999867E-6,-1.3600000,
,,,-167.00000560E-6,-3.00000000,,,,,-167.00000560E-6,-1.3600000,
,,,-165.99999799E-6,-3.00000000,,,,,-165.99999799E-6,-1.3600000,
,,,-165.00000493E-6,-3.00000000,,,,,-165.00000493E-6,-1.3600000,
Source,CH1,,-163.99999731E-6,-3.00000000,,Source,CH2,,-163.99999731E-6,-1.3600000,
Vertical Units,Volts,,-163.00000425E-6,-3.00000000,,Vertical Units,Volts,,-163.00000425E-6,-1.3600000,
Vertical Scale,999.999977648E-3,,-161.99999664E-6,-3.00000000,,Vertical Scale,999.999977648E-3,,-161.99999664E-6,-1.3600000,
Vertical Offset,0,,-161.00000357E-6,-3.00000000,,Vertical Offset,0,,-161.00000357E-6,-1.3600000,
Horizontal Units,s,,-159.99999596E-6,-3.00000000,,Horizontal Units,s,,-159.99999596E-6,-1.3600000,
Horizontal Scale,249.99999937E-6,,-159.00000290E-6,-3.00000000,,Horizontal Scale,249.99999937E-6,,-159.00000290E-6,-1.3600000,
Pt Fmt,Y,,-157.99999528E-6,-3.00000000,,Pt Fmt,Y,,-157.99999528E-6,-1.3600000,
Yzero,0.0,,-157.00000222E-6,-3.00000000,,Yzero,40.00000000E-3,,-157.00000222E-6,-1.3600000,
Probe Atten,1.000000,,-155.99999460E-6,-3.00000000,,Probe Atten,1.000000,,-155.99999460E-6,-1.3600000,
,,,-155.00000154E-6,-3.00000000,,,,,-155.00000154E-6,-1.3600000,
Note,TDS 2002C - 12:09:59 PM   5/12/2025,,-153.99999393E-6,-3.00000000,,Note,TDS 2002C - 12:09:59 PM   5/12/2025,,-153.99999393E-6,-1.3600000,
,,,-153.00000086E-6,-3.00000000,,,,,-153.00000086E-6,-1.3600000,
,,,-151.99999325E-6,-3.00000000,,,,,-151.99999325E-6,-1.3600000,
,,,-151.00000019E-6,-3.00000000,,,,,-151.00000019E-6,-1.3600000,
,,,-149.99999257E-6,-3.00000000,,,,,-149.99999257E-6,-1.3600000,
,,,-148.99999951E-6,-3.00000000,,,,,-148.99999951E-6,-1.3600000,
,,,-148.0000064E-6,-3.00000000,,,,,-148.0000064E-6,-1.3600000,
,,,-146.9999988E-6,-3.00000000,,,,,-146.9999988E-6,-1.3600000,
,,,-146.0000058E-6,-3.00000000,,,,,-146.0000058E-6,-1.3600000,
,,,-144.9999982E-6,-3.00000000,,,,,-144.9999982E-6,-1.3600000,
,,,-144.0000051E-6,-3.00000000,,,,,-144.0000051E-6,-1.3600000,
,,,-142.9999975E-6,-3.00000000,,,,,-142.9999975E-6,-1.3600000,
,,,-142.0000044E-6,-3.00000000,,,,,-142.0000044E-6,-1.3600000,
,,,-140.9999968E-6,-3.00000000,,,,,-140.9999968E-6,-1.3600000,
,,,-140.0000037E-6,-3.00000000,,,,,-140.0000037E-6,-1.3600000,
,,,-138.9999961E-6,-3.00000000,,,,,-138.9999961E-6,-1.3600000,
,,,-138.0000031E-6,-3.00000000,,,,,-138.0000031E-6,-1.3600000,
,,,-136.9999954E-6,-3.00000000,,,,,-136.9999954E-6,-1.3600000,
,,,-136.0000024E-6,-3.00000000,,,,,-136.0000024E-6,-1.3600000,
,,,-134.9999948E-6,-3.00000000,,,,,-134.9999948E-6,-1.3600000,
,,,-134.0000017E-6,-3.00000000,,,,,-134.0000017E-6,-1.3600000,
,,,-132.9999941E-6,-3.00000000,,,,,-132.9999941E-6,-1.3600000,
,,,-132.0000010E-6,-3.00000000,,,,,-132.0000010E-6,-1.3600000,
,,,-130.9999934E-6,-3.00000000,,,,,-130.9999934E-6,-1.3600000,
,,,-130.0000004E-6,-3.00000000,,,,,-130.0000004E-6,-1.3600000,
,,,-128.9999927E-6,-3.00000000,,,,,-128.9999927E-6,-1.3600000,
,,,-127.9999997E-6,-3.00000000,,,,,-127.9999997E-6,-1.4000000,
,,,-127.0000066E-6,-3.00000000,,,,,-127.0000066E-6,-1.3600000,
,,,-125.9999990E-6,-3.00000000,,,,,-125.9999990E-6,-1.4000000,
,,,-125.0000059E-6,-3.00000000,,,,,-125.0000059E-6,-1.4000000,
,,,-123.9999983E-6,-3.00000000,,,,,-123.9999983E-6,-1.4000000,
,,,-123.0000053E-6,-3.00000000,,,,,-123.0000053E-6,-1.4000000,
,,,-121.9999976E-6,-3.00000000,,,,,-121.9999976E-6,-1.4000000,
,,,-120.9999973E-6,-3.00000000,,,,,-120.9999973E-6,-1.4000000,
,,,-119.9999970E-6,-3.00000000,,,,,-119.9999970E-6,-1.4000000,
,,,-118.9999966E-6,-3.00000000,,,,,-118.9999966E-6,-1.4000000,
,,,-117.9999963E-6,-3.00000000,,,,,-117.9999963E-6,-1.4000000,
,,,-116.9999960E-6,-3.00000000,,,,,-116.9999960E-6,-1.4000000,
,,,-116.0000029E-6,-3.00000000,,,,,-116.0000029E-6,-1.4000000,
,,,-115.0000026E-6,-3.00000000,,,,,-115.0000026E-6,-1.4000000,
,,,-114.0000022E-6,-3.00000000,,,,,-114.0000022E-6,-1.4000000,
,,,-113.0000019E-6,-3.00000000,,,,,-113.0000019E-6,-1.4000000,
,,,-112.0000015E-6,-3.00000000,,,,,-112.0000015E-6,-1.4000000,
,,,-111.0000012E-6,-3.00000000,,,,,-111.0000012E-6,-1.4000000,
,,,-110.0000009E-6,-3.00000000,,,,,-110.0000009E-6,-1.4000000,
,,,-109.0000005E-6,-3.00000000,,,,,-109.0000005E-6,-1.4000000,
,,,-108.0000002E-6,-3.00000000,,,,,-108.0000002E-6,-1.4000000,
,,,-106.9999998E-6,-3.00000000,,,,,-106.9999998E-6,-1.4000000,
,,,-105.9999995E-6,-3.00000000,,,,,-105.9999995E-6,-1.4000000,
,,,-104.9999992E-6,-3.00000000,,,,,-104.9999992E-6,-1.4000000,
,,,-103.9999988E-6,-3.00000000,,,,,-103.9999988E-6,-1.4000000,
,,,-102.9999985E-6,-3.00000000,,,,,-102.9999985E-6,-1.4000000,
,,,-101.9999982E-6,-3.00000000,,,,,-101.9999982E-6,-1.4000000,
,,,-100.9999978E-6,-3.00000000,,,,,-100.9999978E-6,-1.4000000,
,,,-99.999997474E-6,-3.00000000,,,,,-99.999997474E-6,-1.4000000,
,,,-98.999997135E-6,-3.00000000,,,,,-98.999997135E-6,-1.4000000,
,,,-97.999996797E-6,-3.00000000,,,,,-97.999996797E-6,-1.4000000,
,,,-96.999996458E-6,-3.00000000,,,,,-96.999996458E-6,-1.4000000,
,,,-95.999996120E-6,-3.00000000,,,,,-95.999996120E-6,-1.4000000,
,,,-95.000003057E-6,-3.00000000,,,,,-95.000003057E-6,-1.4000000,
,,,-94.000002719E-6,-3.00000000,,,,,-94.000002719E-6,-1.4000000,
,,,-93.000002380E-6,-3.00000000,,,,,-93.000002380E-6,-1.4000000,
,,,-92.000002041E-6,-3.00000000,,,,,-92.000002041E-6,-1.4000000,
,,,-91.000001703E-6,-3.00000000,,,,,-91.000001703E-6,-1.4000000,
,,,-90.000001364E-6,-3.00000000,,,,,-90.000001364E-6,-1.4000000,
,,,-89.000001026E-6,-3.00000000,,,,,-89.000001026E-6,-1.4000000,
,,,-88.000000687E-6,-3.00000000,,,,,-88.000000687E-6,-1.4000000,
,,,-87.000000349E-6,-3.00000000,,,,,-87.000000349E-6,-1.4000000,
,,,-86.000000010E-6,-3.00000000,,,,,-86.000000010E-6,-1.4000000,
,,,-84.999999672E-6,-3.00000000,,,,,-84.999999672E-6,-1.4000000,
,,,-83.999999333E-6,-3.00000000,,,,,-83.999999333E-6,-1.4000000,
,,,-82.999998995E-6,-3.00000000,,,,,-82.999998995E-6,-1.4000000,
,,,-81.999998656E-6,-3.00000000,,,,,-81.999998656E-6,-1.4000000,
,,,-80.999998318E-6,-3.00000000,,,,,-80.999998318E-6,-1.4000000,
,,,-79.999997979E-6,-3.00000000,,,,,-79.999997979E-6,-1.4000000,
,,,-78.999997640E-6,-3.00000000,,,,,-78.999997640E-6,-1.4000000,
,,,-77.999997302E-6,-3.00000000,,,,,-77.999997302E-6,-1.4000000,
,,,-76.999996963E-6,-3.00000000,,,,,-76.999996963E-6,-1.4000000,
,,,-75.999996625E-6,-3.00000000,,,,,-75.999996625E-6,-1.4000000,
,,,-74.999996286E-6,-3.00000000,,,,,-74.999996286E-6,-1.4000000,
,,,-73.999995948E-6,-3.00000000,,,,,-73.999995948E-6,-1.4000000,
,,,-73.000002885E-6,-3.00000000,,,,,-73.000002885E-6,-1.4000000,
,,,-72.000002547E-6,-3.00000000,,,,,-72.000002547E-6,-1.4000000,
,,,-71.000002208E-6,-3.00000000,,,,,-71.000002208E-6,-1.4000000,
,,,-70.000001870E-6,-3.00000000,,,,,-70.000001870E-6,-1.4000000,
,,,-69.000001531E-6,-3.00000000,,,,,-69.000001531E-6,-1.4000000,
,,,-68.000001193E-6,-3.00000000,,,,,-68.000001193E-6,-1.4000000,
,,,-67.000000854E-6,-3.00000000,,,,,-67.000000854E-6,-1.4000000,
,,,-66.000000515E-6,-3.00000000,,,,,-66.000000515E-6,-1.4000000,
,,,-65.000000177E-6,-3.00000000,,,,,-65.000000177E-6,-1.4000000,
,,,-63.999999838E-6,-3.00000000,,,,,-63.999999838E-6,-1.4000000,
,,,-62.999999500E-6,-3.00000000,,,,,-62.999999500E-6,-1.4000000,
,,,-61.999999161E-6,-3.00000000,,,,,-61.999999161E-6,-1.4000000,
,,,-60.999998823E-6,-3.00000000,,,,,-60.999998823E-6,-1.4000000,
,,,-59.999998484E-6,-3.00000000,,,,,-59.999998484E-6,-1.4000000,
,,,-58.999998146E-6,-3.00000000,,,,,-58.999998146E-6,-1.4000000,
,,,-57.999997807E-6,-3.00000000,,,,,-57.999997807E-6,-1.4000000,
,,,-57.000001107E-6,-3.00000000,,,,,-57.000001107E-6,-1.4000000,
,,,-56.000000768E-6,-3.00000000,,,,,-56.000000768E-6,-1.4000000,
,,,-55.000000430E-6,-3.00000000,,,,,-55.000000430E-6,-1.3600000,
,,,-54.00000009E-6,-3.00000000,,,,,-54.00000009E-6,-1.3600000,
,,,-52.99999975E-6,-3.00000000,,,,,-52.99999975E-6,-1.3600000,
,,,-51.99999941E-6,-3.00000000,,,,,-51.99999941E-6,-1.4000000,
,,,-50.99999908E-6,-3.00000000,,,,,-50.99999908E-6,-1.3600000,
,,,-49.99999874E-6,-3.00000000,,,,,-49.99999874E-6,-1.4000000,
,,,-48.99999840E-6,-3.00000000,,,,,-48.99999840E-6,-1.3600000,
,,,-47.99999806E-6,-3.00000000,,,,,-47.99999806E-6,-1.3600000,
,,,-47.00000136E-6,-3.00000000,,,,,-47.00000136E-6,-1.3600000,
,,,-46.00000102E-6,-3.00000000,,,,,-46.00000102E-6,-1.3600000,
,,,-45.00000068E-6,-3.00000000,,,,,-45.00000068E-6,-1.3600000,
,,,-44.00000034E-6,-3.00000000,,,,,-44.00000034E-6,-1.3600000,
,,,-43.00000001E-6,-3.00000000,,,,,-43.00000001E-6,-1.3600000,
,,,-41.99999967E-6,-3.00000000,,,,,-41.99999967E-6,-1.3600000,
,,,-40.99999933E-6,-3.00000000,,,,,-40.99999933E-6,-1.3600000,
,,,-39.99999899E-6,-3.00000000,,,,,-39.99999899E-6,-1.3600000,
,,,-38.99999865E-6,-3.00000000,,,,,-38.99999865E-6,-1.3600000,
,,,-37.99999831E-6,-3.00000000,,,,,-37.99999831E-6,-1.3600000,
,,,-36.99999797E-6,-3.00000000,,,,,-36.99999797E-6,-1.3600000,
,,,-36.00000127E-6,-3.00000000,,,,,-36.00000127E-6,-1.3600000,
,,,-35.00000093E-6,-3.00000000,,,,,-35.00000093E-6,-1.3600000,
,,,-34.00000060E-6,-3.00000000,,,,,-34.00000060E-6,-1.3600000,
,,,-33.00000026E-6,-3.00000000,,,,,-33.00000026E-6,-1.3600000,
,,,-31.99999992E-6,-3.00000000,,,,,-31.99999992E-6,-1.3600000,
,,,-30.99999958E-6,-3.00000000,,,,,-30.99999958E-6,-1.3600000,
,,,-29.99999924E-6,-3.00000000,,,,,-29.99999924E-6,-1.3600000,
,,,-28.99999890E-6,-3.00000000,,,,,-28.99999890E-6,-1.3600000,
,,,-28.00000038E-6,-3.00000000,,,,,-28.00000038E-6,-1.3600000,
,,,-27.00000005E-6,-3.00000000,,,,,-27.00000005E-6,-1.3600000,
,,,-25.99999971E-6,-3.00000000,,,,,-25.99999971E-6,-1.3600000,
,,,-24.99999937E-6,-3.00000000,,,,,-24.99999937E-6,-1.3600000,
,,,-23.99999903E-6,-3.00000000,,,,,-23.99999903E-6,-1.3600000,
,,,-23.00000051E-6,-3.00000000,,,,,-23.00000051E-6,-1.4000000,
,,,-22.00000017E-6,-3.00000000,,,,,-22.00000017E-6,-1.3600000,
,,,-20.99999983E-6,-3.00000000,,,,,-20.99999983E-6,-1.3600000,
,,,-19.9999995E-6,-3.00000000,,,,,-19.9999995E-6,-1.4000000,
,,,-18.9999992E-6,-3.00000000,,,,,-18.9999992E-6,-1.4000000,
,,,-17.9999988E-6,-3.00000000,,,,,-17.9999988E-6,-1.3600000,
,,,-17.0000003E-6,-3.00000000,,,,,-17.0000003E-6,-1.3600000,
,,,-16.0000000E-6,-3.00000000,,,,,-16.0000000E-6,-1.3600000,
,,,-14.9999996E-6,-3.00000000,,,,,-14.9999996E-6,-1.4000000,
,,,-13.9999993E-6,-3.00000000,,,,,-13.9999993E-6,-1.3600000,
,,,-12.9999999E-6,-3.00000000,,,,,-12.9999999E-6,-1.4000000,
,,,-11.9999995E-6,-3.00000000,,,,,-11.9999995E-6,-1.4000000,
,,,-11.0000001E-6,-3.00000000,,,,,-11.0000001E-6,-1.4000000,
,,,-9.999999747E-6,-3.00000000,,,,,-9.999999747E-6,-1.4000000,
,,,-8.999999409E-6,-3.00000000,,,,,-8.999999409E-6,-1.4000000,
,,,-7.999999980E-6,-3.00000000,,,,,-7.999999980E-6,-1.4000000,
,,,-6.99999964E-6,-3.00000000,,,,,-6.99999964E-6,-1.4000000,
,,,-5.99999976E-6,-3.00000000,,,,,-5.99999976E-6,-1.4000000,
,,,-4.99999987E-6,-3.00000000,,,,,-4.99999987E-6,-1.4000000,
,,,-3.99999954E-6,-3.00000000,,,,,-3.99999954E-6,-1.4000000,
,,,-2.99999965E-6,-3.00000000,,,,,-2.99999965E-6,-1.4000000,
,,,-1.9999998E-6,-3.00000000,,,,,-1.9999998E-6,-1.4000000,
,,,-999.999770102E-9,-3.00000000,,,,,-999.999770102E-9,-1.4000000,
,,,227.37367249E-15,-3.00000000,,,,,227.37367249E-15,-1.4000000,
,,,1.0000002E-6,-3.00000000,,,,,1.0000002E-6,-1.4000000,
,,,2.0000002E-6,-3.00000000,,,,,2.0000002E-6,-1.4000000,
,,,3.00000011E-6,3.11999989,,,,,3.00000011E-6,-1.4000000,
,,,4.00000044E-6,3.03999996,,,,,4.00000044E-6,-1.4800000,
,,,5.00000033E-6,3.03999996,,,,,5.00000033E-6,-1.5599999,
,,,6.00000021E-6,3.03999996,,,,,6.00000021E-6,-1.6400000,
,,,7.00000010E-6,3.03999996,,,,,7.00000010E-6,-1.6400000,
,,,7.999999980E-6,3.03999996,,,,,7.999999980E-6,-1.6400000,
,,,9.000000318E-6,3.03999996,,,,,9.000000318E-6,-1.5999999,
,,,9.999999747E-6,3.03999996,,,,,9.999999747E-6,-1.5599999,
,,,11.0000001E-6,3.03999996,,,,,11.0000001E-6,-1.4800000,
,,,12.0000004E-6,3.07999992,,,,,12.0000004E-6,-1.4000000,
,,,12.9999999E-6,3.03999996,,,,,12.9999999E-6,-1.3199999,
,,,14.0000002E-6,3.07999992,,,,,14.0000002E-6,-1.1999999,
,,,15.0000005E-6,3.07999992,,,,,15.0000005E-6,-1.0799999,
,,,16.0000000E-6,3.03999996,,,,,16.0000000E-6,-959.999978542E-3,
,,,17.0000003E-6,3.07999992,,,,,17.0000003E-6,-839.999973774E-3,
,,,18.0000006E-6,3.07999992,,,,,18.0000006E-6,-719.999969006E-3,
,,,19.0000010E-6,3.07999992,,,,,19.0000010E-6,-599.999964237E-3,
,,,19.9999995E-6,3.07999992,,,,,19.9999995E-6,-479.999989271E-3,
,,,20.99999983E-6,3.07999992,,,,,20.99999983E-6,-319.99999285E-3,
,,,22.00000017E-6,3.07999992,,,,,22.00000017E-6,-199.99998808E-3,
,,,23.00000051E-6,3.07999992,,,,,23.00000051E-6,-39.99999911E-3,
,,,24.00000085E-6,3.07999992,,,,,24.00000085E-6,79.999998212E-3,
,,,24.99999937E-6,3.07999992,,,,,24.99999937E-6,239.99999464E-3,
,,,25.99999971E-6,3.07999992,,,,,25.99999971E-6,359.99998450E-3,
,,,27.00000005E-6,3.07999992,,,,,27.00000005E-6,519.999980927E-3,
,,,28.00000038E-6,3.07999992,,,,,28.00000038E-6,639.999985695E-3,
,,,29.00000072E-6,3.07999992,,,,,29.00000072E-6,759.999990463E-3,
,,,29.99999924E-6,3.07999992,,,,,29.99999924E-6,919.999957085E-3,
,,,30.99999958E-6,3.07999992,,,,,30.99999958E-6,1.0400000,
,,,31.99999992E-6,3.07999992,,,,,31.99999992E-6,1.1600000,
,,,33.00000026E-6,3.07999992,,,,,33.00000026E-6,1.2800000,
,,,34.00000060E-6,3.07999992,,,,,34.00000060E-6,1.4000000,
,,,35.00000093E-6,3.07999992,,,,,35.00000093E-6,1.5200000,
,,,36.00000127E-6,3.07999992,,,,,36.00000127E-6,1.6400000,
,,,37.00000161E-6,3.07999992,,,,,37.00000161E-6,1.7600000,
,,,37.99999831E-6,3.07999992,,,,,37.99999831E-6,1.8399999,
,,,38.99999865E-6,3.07999992,,,,,38.99999865E-6,1.9599999,
,,,39.99999899E-6,3.07999992,,,,,39.99999899E-6,2.0400000,
,,,40.99999933E-6,3.07999992,,,,,40.99999933E-6,2.1599998,
,,,41.99999967E-6,3.07999992,,,,,41.99999967E-6,2.2400000,
,,,43.00000001E-6,3.07999992,,,,,43.00000001E-6,2.3199999,
,,,44.00000034E-6,3.07999992,,,,,44.00000034E-6,2.3999999,
,,,45.00000068E-6,3.07999992,,,,,45.00000068E-6,2.4800000,
,,,46.00000102E-6,3.07999992,,,,,46.00000102E-6,2.5200000,
,,,47.00000136E-6,3.07999992,,,,,47.00000136E-6,2.5999999,
,,,48.00000170E-6,3.07999992,,,,,48.00000170E-6,2.6799998,
,,,48.99999840E-6,3.07999992,,,,,48.99999840E-6,2.72000003,
,,,49.99999874E-6,3.07999992,,,,,49.99999874E-6,2.75999999,
,,,50.99999908E-6,3.07999992,,,,,50.99999908E-6,2.79999995,
,,,51.99999941E-6,3.07999992,,,,,51.99999941E-6,2.83999991,
,,,52.99999975E-6,3.07999992,,,,,52.99999975E-6,2.87999988,
,,,54.00000009E-6,3.07999992,,,,,54.00000009E-6,2.91999984,
,,,55.000000430E-6,3.07999992,,,,,55.000000430E-6,2.91999984,
,,,56.000000768E-6,3.07999992,,,,,56.000000768E-6,2.96000004,
,,,57.000001107E-6,3.07999992,,,,,57.000001107E-6,2.96000004,
,,,58.000001445E-6,3.07999992,,,,,58.000001445E-6,3.00000000,
,,,59.000001784E-6,3.07999992,,,,,59.000001784E-6,3.00000000,
,,,59.999998484E-6,3.07999992,,,,,59.999998484E-6,2.96000004,
,,,60.999998823E-6,3.07999992,,,,,60.999998823E-6,3.00000000,
,,,61.999999161E-6,3.07999992,,,,,61.999999161E-6,2.96000004,
,,,62.999999500E-6,3.07999992,,,,,62.999999500E-6,2.96000004,
,,,63.999999838E-6,3.07999992,,,,,63.999999838E-6,2.91999984,
,,,65.000000177E-6,3.07999992,,,,,65.000000177E-6,2.91999984,
,,,66.000000515E-6,3.07999992,,,,,66.000000515E-6,2.87999988,
,,,67.000000854E-6,3.07999992,,,,,67.000000854E-6,2.83999991,
,,,68.000001193E-6,3.07999992,,,,,68.000001193E-6,2.79999995,
,,,69.000001531E-6,3.07999992,,,,,69.000001531E-6,2.75999999,
,,,70.000001870E-6,3.07999992,,,,,70.000001870E-6,2.72000003,
,,,71.000002208E-6,3.07999992,,,,,71.000002208E-6,2.6799998,
,,,72.000002547E-6,3.07999992,,,,,72.000002547E-6,2.6399999,
,,,73.000002885E-6,3.07999992,,,,,73.000002885E-6,2.5999999,
,,,74.000003224E-6,3.07999992,,,,,74.000003224E-6,2.5599999,
,,,75.000003562E-6,3.07999992,,,,,75.000003562E-6,2.5200000,
,,,75.999996625E-6,3.07999992,,,,,75.999996625E-6,2.4400001,
,,,76.999996963E-6,3.07999992,,,,,76.999996963E-6,2.3999999,
,,,77.999997302E-6,3.07999992,,,,,77.999997302E-6,2.3199999,
,,,78.999997640E-6,3.07999992,,,,,78.999997640E-6,2.2800000,
,,,79.999997979E-6,3.07999992,,,,,79.999997979E-6,2.2000000,
,,,80.999998318E-6,3.07999992,,,,,80.999998318E-6,2.1599998,
,,,81.999998656E-6,3.07999992,,,,,81.999998656E-6,2.0799999,
,,,82.999998995E-6,3.07999992,,,,,82.999998995E-6,2.0000000,
,,,83.999999333E-6,3.07999992,,,,,83.999999333E-6,1.9599999,
,,,84.999999672E-6,3.07999992,,,,,84.999999672E-6,1.8800000,
,,,86.000000010E-6,3.07999992,,,,,86.000000010E-6,1.8399999,
,,,87.000000349E-6,3.07999992,,,,,87.000000349E-6,1.7600000,
,,,88.000000687E-6,3.07999992,,,,,88.000000687E-6,1.7199999,
,,,89.000001026E-6,3.07999992,,,,,89.000001026E-6,1.6400000,
,,,90.000001364E-6,3.07999992,,,,,90.000001364E-6,1.5999999,
,,,91.000001703E-6,3.07999992,,,,,91.000001703E-6,1.5200000,
,,,92.000002041E-6,3.07999992,,,,,92.000002041E-6,1.4800000,
,,,93.000002380E-6,3.07999992,,,,,93.000002380E-6,1.4399999,
,,,94.000002719E-6,3.07999992,,,,,94.000002719E-6,1.3600000,
,,,95.000003057E-6,3.07999992,,,,,95.000003057E-6,1.3199999,
,,,96.000003396E-6,3.07999992,,,,,96.000003396E-6,1.2800000,
,,,96.999996458E-6,3.07999992,,,,,96.999996458E-6,1.1999999,
,,,97.999996797E-6,3.07999992,,,,,97.999996797E-6,1.1600000,
,,,98.999997135E-6,3.07999992,,,,,98.999997135E-6,1.1200000,
,,,99.999997474E-6,3.07999992,,,,,99.999997474E-6,1.0799999,
,,,100.9999978E-6,3.07999992,,,,,100.9999978E-6,1.0400000,
,,,101.9999982E-6,3.07999992,,,,,101.9999982E-6,1.000000,
,,,102.9999985E-6,3.07999992,,,,,102.9999985E-6,959.999978542E-3,
,,,103.9999988E-6,3.07999992,,,,,103.9999988E-6,919.999957085E-3,
,,,104.9999992E-6,3.07999992,,,,,104.9999992E-6,879.999995232E-3,
,,,105.9999995E-6,3.07999992,,,,,105.9999995E-6,879.999995232E-3,
,,,106.9999998E-6,3.07999992,,,,,106.9999998E-6,839.999973774E-3,
,,,108.0000002E-6,3.07999992,,,,,108.0000002E-6,799.999952316E-3,
,,,109.0000005E-6,3.07999992,,,,,109.0000005E-6,799.999952316E-3,
,,,110.0000009E-6,3.07999992,,,,,110.0000009E-6,759.999990463E-3,
,,,111.0000012E-6,3.07999992,,,,,111.0000012E-6,759.999990463E-3,
,,,112.0000015E-6,3.07999992,,,,,112.0000015E-6,759.999990463E-3,
,,,113.0000019E-6,3.07999992,,,,,113.0000019E-6,719.999969006E-3,
,,,114.0000022E-6,3.07999992,,,,,114.0000022E-6,719.999969006E-3,
,,,115.0000026E-6,3.07999992,,,,,115.0000026E-6,719.999969006E-3,
,,,116.0000029E-6,3.07999992,,,,,116.0000029E-6,719.999969006E-3,
,,,117.0000032E-6,3.07999992,,,,,117.0000032E-6,719.999969006E-3,
,,,117.9999963E-6,3.07999992,,,,,117.9999963E-6,719.999969006E-3,
,,,118.9999966E-6,3.07999992,,,,,118.9999966E-6,719.999969006E-3,
,,,119.9999970E-6,3.07999992,,,,,119.9999970E-6,719.999969006E-3,
,,,120.9999973E-6,3.07999992,,,,,120.9999973E-6,759.999990463E-3,
,,,121.9999976E-6,3.07999992,,,,,121.9999976E-6,759.999990463E-3,
,,,123.0000053E-6,3.07999992,,,,,123.0000053E-6,759.999990463E-3,
,,,123.9999983E-6,3.07999992,,,,,123.9999983E-6,799.999952316E-3,
,,,125.0000059E-6,3.07999992,,,,,125.0000059E-6,799.999952316E-3,
,,,125.9999990E-6,3.07999992,,,,,125.9999990E-6,839.999973774E-3,
,,,127.0000066E-6,3.07999992,,,,,127.0000066E-6,839.999973774E-3,
,,,127.9999997E-6,3.07999992,,,,,127.9999997E-6,879.999995232E-3,
,,,128.9999927E-6,3.07999992,,,,,128.9999927E-6,879.999995232E-3,
,,,130.0000004E-6,3.07999992,,,,,130.0000004E-6,919.999957085E-3,
,,,130.9999934E-6,3.07999992,,,,,130.9999934E-6,919.999957085E-3,
,,,132.0000010E-6,3.07999992,,,,,132.0000010E-6,959.999978542E-3,
,,,132.9999941E-6,3.07999992,,,,,132.9999941E-6,1.000000,
,,,134.0000017E-6,3.07999992,,,,,134.0000017E-6,1.000000,
,,,134.9999948E-6,3.07999992,,,,,134.9999948E-6,1.0400000,
,,,136.0000024E-6,3.07999992,,,,,136.0000024E-6,1.1200000,
,,,136.9999954E-6,3.07999992,,,,,136.9999954E-6,1.1200000,
,,,138.0000031E-6,3.07999992,,,,,138.0000031E-6,1.1600000,
