PHSX536/Final/data/voltage_sweep/4000mV.csv

Record Length,2500,Points,-169.99999934E-6,-4.00000000,,Record Length,2500,Points,-169.99999934E-6,-1.8000001,
Sample Interval,1.000000E-6,s,-169.00000628E-6,-4.00000000,,Sample Interval,1.000000E-6,s,-169.00000628E-6,-1.8000001,
Trigger Point,169.99999977,Samples,-167.99999867E-6,-4.00000000,,Trigger Point,169.99999977,Samples,-167.99999867E-6,-1.8000001,
,,,-167.00000560E-6,-4.00000000,,,,,-167.00000560E-6,-1.8000001,
,,,-165.99999799E-6,-4.00000000,,,,,-165.99999799E-6,-1.8000001,
,,,-165.00000493E-6,-4.00000000,,,,,-165.00000493E-6,-1.8000001,
Source,CH1,,-163.99999731E-6,-4.00000000,,Source,CH2,,-163.99999731E-6,-1.8000001,
Vertical Units,Volts,,-163.00000425E-6,-4.00000000,,Vertical Units,Volts,,-163.00000425E-6,-1.8000001,
Vertical Scale,5.00000007,,-161.99999664E-6,-4.00000000,,Vertical Scale,5.00000007,,-161.99999664E-6,-1.8000001,
Vertical Offset,0,,-161.00000357E-6,-4.00000000,,Vertical Offset,0,,-161.00000357E-6,-1.8000001,
Horizontal Units,s,,-159.99999596E-6,-4.00000000,,Horizontal Units,s,,-159.99999596E-6,-1.8000001,
Horizontal Scale,249.99999937E-6,,-159.00000290E-6,-4.00000000,,Horizontal Scale,249.99999937E-6,,-159.00000290E-6,-1.8000001,
Pt Fmt,Y,,-157.99999528E-6,-4.00000000,,Pt Fmt,Y,,-157.99999528E-6,-1.8000001,
Yzero,0.0,,-157.00000222E-6,-4.00000000,,Yzero,40.00000000E-3,,-157.00000222E-6,-1.8000001,
Probe Atten,1.000000,,-155.99999460E-6,-4.00000000,,Probe Atten,1.000000,,-155.99999460E-6,-1.8000001,
,,,-155.00000154E-6,-4.00000000,,,,,-155.00000154E-6,-1.8000001,
Note,TDS 2002C - 12:10:22 PM   5/12/2025,,-153.99999393E-6,-4.00000000,,Note,TDS 2002C - 12:10:22 PM   5/12/2025,,-153.99999393E-6,-1.8000001,
,,,-153.00000086E-6,-4.00000000,,,,,-153.00000086E-6,-1.8000001,
,,,-151.99999325E-6,-4.00000000,,,,,-151.99999325E-6,-1.8000001,
,,,-151.00000019E-6,-4.00000000,,,,,-151.00000019E-6,-1.8000001,
,,,-149.99999257E-6,-4.00000000,,,,,-149.99999257E-6,-1.8000001,
,,,-148.99999951E-6,-4.00000000,,,,,-148.99999951E-6,-1.8000001,
,,,-148.0000064E-6,-4.00000000,,,,,-148.0000064E-6,-1.8000001,
,,,-146.9999988E-6,-4.00000000,,,,,-146.9999988E-6,-1.8000001,
,,,-146.0000058E-6,-4.00000000,,,,,-146.0000058E-6,-1.8000001,
,,,-144.9999982E-6,-4.00000000,,,,,-144.9999982E-6,-1.8000001,
,,,-144.0000051E-6,-4.00000000,,,,,-144.0000051E-6,-1.8000001,
,,,-142.9999975E-6,-4.00000000,,,,,-142.9999975E-6,-1.8000001,
,,,-142.0000044E-6,-4.00000000,,,,,-142.0000044E-6,-1.8000001,
,,,-140.9999968E-6,-4.00000000,,,,,-140.9999968E-6,-1.8000001,
,,,-140.0000037E-6,-4.00000000,,,,,-140.0000037E-6,-1.8000001,
,,,-138.9999961E-6,-4.00000000,,,,,-138.9999961E-6,-1.8000001,
,,,-138.0000031E-6,-4.00000000,,,,,-138.0000031E-6,-1.8000001,
,,,-136.9999954E-6,-4.00000000,,,,,-136.9999954E-6,-1.8000001,
,,,-136.0000024E-6,-4.00000000,,,,,-136.0000024E-6,-1.8000001,
,,,-134.9999948E-6,-4.00000000,,,,,-134.9999948E-6,-1.8000001,
,,,-134.0000017E-6,-4.00000000,,,,,-134.0000017E-6,-1.8000001,
,,,-132.9999941E-6,-4.00000000,,,,,-132.9999941E-6,-1.8000001,
,,,-132.0000010E-6,-4.00000000,,,,,-132.0000010E-6,-1.8000001,
,,,-130.9999934E-6,-4.00000000,,,,,-130.9999934E-6,-1.8000001,
,,,-130.0000004E-6,-4.00000000,,,,,-130.0000004E-6,-1.8000001,
,,,-128.9999927E-6,-4.00000000,,,,,-128.9999927E-6,-1.8000001,
,,,-127.9999997E-6,-4.00000000,,,,,-127.9999997E-6,-1.8000001,
,,,-127.0000066E-6,-4.00000000,,,,,-127.0000066E-6,-1.8000001,
,,,-125.9999990E-6,-4.00000000,,,,,-125.9999990E-6,-1.8000001,
,,,-125.0000059E-6,-4.00000000,,,,,-125.0000059E-6,-1.8000001,
,,,-123.9999983E-6,-4.00000000,,,,,-123.9999983E-6,-1.8000001,
,,,-123.0000053E-6,-4.00000000,,,,,-123.0000053E-6,-1.8000001,
,,,-121.9999976E-6,-4.00000000,,,,,-121.9999976E-6,-1.8000001,
,,,-120.9999973E-6,-4.00000000,,,,,-120.9999973E-6,-1.8000001,
,,,-119.9999970E-6,-4.00000000,,,,,-119.9999970E-6,-1.8000001,
,,,-118.9999966E-6,-4.00000000,,,,,-118.9999966E-6,-1.8000001,
,,,-117.9999963E-6,-4.00000000,,,,,-117.9999963E-6,-1.8000001,
,,,-116.9999960E-6,-4.00000000,,,,,-116.9999960E-6,-1.8000001,
,,,-116.0000029E-6,-4.00000000,,,,,-116.0000029E-6,-1.8000001,
,,,-115.0000026E-6,-4.00000000,,,,,-115.0000026E-6,-1.8000001,
,,,-114.0000022E-6,-4.00000000,,,,,-114.0000022E-6,-1.8000001,
,,,-113.0000019E-6,-4.00000000,,,,,-113.0000019E-6,-1.8000001,
,,,-112.0000015E-6,-4.00000000,,,,,-112.0000015E-6,-1.8000001,
,,,-111.0000012E-6,-4.00000000,,,,,-111.0000012E-6,-1.8000001,
,,,-110.0000009E-6,-4.00000000,,,,,-110.0000009E-6,-1.8000001,
,,,-109.0000005E-6,-4.00000000,,,,,-109.0000005E-6,-1.8000001,
,,,-108.0000002E-6,-4.00000000,,,,,-108.0000002E-6,-1.8000001,
,,,-106.9999998E-6,-4.00000000,,,,,-106.9999998E-6,-1.8000001,
,,,-105.9999995E-6,-4.00000000,,,,,-105.9999995E-6,-1.8000001,
,,,-104.9999992E-6,-4.00000000,,,,,-104.9999992E-6,-1.8000001,
,,,-103.9999988E-6,-4.00000000,,,,,-103.9999988E-6,-1.8000001,
,,,-102.9999985E-6,-4.00000000,,,,,-102.9999985E-6,-1.8000001,
,,,-101.9999982E-6,-4.00000000,,,,,-101.9999982E-6,-1.8000001,
,,,-100.9999978E-6,-4.00000000,,,,,-100.9999978E-6,-1.8000001,
,,,-99.999997474E-6,-4.00000000,,,,,-99.999997474E-6,-1.8000001,
,,,-98.999997135E-6,-4.00000000,,,,,-98.999997135E-6,-1.8000001,
,,,-97.999996797E-6,-4.00000000,,,,,-97.999996797E-6,-1.8000001,
,,,-96.999996458E-6,-4.00000000,,,,,-96.999996458E-6,-1.8000001,
,,,-95.999996120E-6,-4.00000000,,,,,-95.999996120E-6,-1.8000001,
,,,-95.000003057E-6,-4.00000000,,,,,-95.000003057E-6,-1.8000001,
,,,-94.000002719E-6,-4.00000000,,,,,-94.000002719E-6,-1.8000001,
,,,-93.000002380E-6,-4.00000000,,,,,-93.000002380E-6,-1.8000001,
,,,-92.000002041E-6,-4.00000000,,,,,-92.000002041E-6,-1.8000001,
,,,-91.000001703E-6,-4.00000000,,,,,-91.000001703E-6,-1.8000001,
,,,-90.000001364E-6,-4.00000000,,,,,-90.000001364E-6,-1.8000001,
,,,-89.000001026E-6,-4.00000000,,,,,-89.000001026E-6,-1.8000001,
,,,-88.000000687E-6,-4.00000000,,,,,-88.000000687E-6,-1.8000001,
,,,-87.000000349E-6,-4.00000000,,,,,-87.000000349E-6,-1.8000001,
,,,-86.000000010E-6,-4.00000000,,,,,-86.000000010E-6,-1.8000001,
,,,-84.999999672E-6,-4.00000000,,,,,-84.999999672E-6,-1.8000001,
,,,-83.999999333E-6,-4.00000000,,,,,-83.999999333E-6,-1.8000001,
,,,-82.999998995E-6,-4.00000000,,,,,-82.999998995E-6,-1.8000001,
,,,-81.999998656E-6,-4.00000000,,,,,-81.999998656E-6,-1.8000001,
,,,-80.999998318E-6,-4.00000000,,,,,-80.999998318E-6,-1.8000001,
,,,-79.999997979E-6,-4.00000000,,,,,-79.999997979E-6,-1.8000001,
,,,-78.999997640E-6,-4.00000000,,,,,-78.999997640E-6,-1.8000001,
,,,-77.999997302E-6,-4.00000000,,,,,-77.999997302E-6,-1.8000001,
,,,-76.999996963E-6,-4.00000000,,,,,-76.999996963E-6,-1.8000001,
,,,-75.999996625E-6,-4.00000000,,,,,-75.999996625E-6,-1.8000001,
,,,-74.999996286E-6,-4.00000000,,,,,-74.999996286E-6,-1.8000001,
,,,-73.999995948E-6,-4.00000000,,,,,-73.999995948E-6,-1.8000001,
,,,-73.000002885E-6,-4.00000000,,,,,-73.000002885E-6,-1.8000001,
,,,-72.000002547E-6,-4.00000000,,,,,-72.000002547E-6,-1.8000001,
,,,-71.000002208E-6,-4.00000000,,,,,-71.000002208E-6,-1.8000001,
,,,-70.000001870E-6,-4.00000000,,,,,-70.000001870E-6,-1.8000001,
,,,-69.000001531E-6,-4.00000000,,,,,-69.000001531E-6,-1.8000001,
,,,-68.000001193E-6,-4.00000000,,,,,-68.000001193E-6,-1.8000001,
,,,-67.000000854E-6,-4.00000000,,,,,-67.000000854E-6,-1.8000001,
,,,-66.000000515E-6,-4.00000000,,,,,-66.000000515E-6,-1.8000001,
,,,-65.000000177E-6,-4.00000000,,,,,-65.000000177E-6,-1.8000001,
,,,-63.999999838E-6,-4.00000000,,,,,-63.999999838E-6,-1.8000001,
,,,-62.999999500E-6,-4.00000000,,,,,-62.999999500E-6,-1.8000001,
,,,-61.999999161E-6,-4.00000000,,,,,-61.999999161E-6,-1.8000001,
,,,-60.999998823E-6,-4.00000000,,,,,-60.999998823E-6,-1.8000001,
,,,-59.999998484E-6,-4.00000000,,,,,-59.999998484E-6,-1.8000001,
,,,-58.999998146E-6,-4.00000000,,,,,-58.999998146E-6,-1.8000001,
,,,-57.999997807E-6,-4.00000000,,,,,-57.999997807E-6,-1.8000001,
,,,-57.000001107E-6,-4.00000000,,,,,-57.000001107E-6,-1.8000001,
,,,-56.000000768E-6,-4.00000000,,,,,-56.000000768E-6,-1.8000001,
,,,-55.000000430E-6,-4.00000000,,,,,-55.000000430E-6,-1.8000001,
,,,-54.00000009E-6,-4.00000000,,,,,-54.00000009E-6,-1.8000001,
,,,-52.99999975E-6,-4.00000000,,,,,-52.99999975E-6,-1.8000001,
,,,-51.99999941E-6,-4.00000000,,,,,-51.99999941E-6,-1.8000001,
,,,-50.99999908E-6,-4.00000000,,,,,-50.99999908E-6,-1.8000001,
,,,-49.99999874E-6,-4.00000000,,,,,-49.99999874E-6,-1.8000001,
,,,-48.99999840E-6,-4.00000000,,,,,-48.99999840E-6,-1.8000001,
,,,-47.99999806E-6,-4.00000000,,,,,-47.99999806E-6,-1.8000001,
,,,-47.00000136E-6,-4.00000000,,,,,-47.00000136E-6,-1.8000001,
,,,-46.00000102E-6,-4.00000000,,,,,-46.00000102E-6,-1.8000001,
,,,-45.00000068E-6,-4.00000000,,,,,-45.00000068E-6,-1.8000001,
,,,-44.00000034E-6,-4.00000000,,,,,-44.00000034E-6,-1.8000001,
,,,-43.00000001E-6,-4.00000000,,,,,-43.00000001E-6,-1.8000001,
,,,-41.99999967E-6,-4.00000000,,,,,-41.99999967E-6,-1.8000001,
,,,-40.99999933E-6,-4.00000000,,,,,-40.99999933E-6,-1.8000001,
,,,-39.99999899E-6,-4.00000000,,,,,-39.99999899E-6,-1.8000001,
,,,-38.99999865E-6,-4.00000000,,,,,-38.99999865E-6,-1.8000001,
,,,-37.99999831E-6,-4.00000000,,,,,-37.99999831E-6,-1.8000001,
,,,-36.99999797E-6,-4.00000000,,,,,-36.99999797E-6,-1.8000001,
,,,-36.00000127E-6,-4.00000000,,,,,-36.00000127E-6,-1.8000001,
,,,-35.00000093E-6,-4.00000000,,,,,-35.00000093E-6,-1.8000001,
,,,-34.00000060E-6,-4.00000000,,,,,-34.00000060E-6,-1.8000001,
,,,-33.00000026E-6,-4.00000000,,,,,-33.00000026E-6,-1.8000001,
,,,-31.99999992E-6,-4.00000000,,,,,-31.99999992E-6,-1.8000001,
,,,-30.99999958E-6,-4.00000000,,,,,-30.99999958E-6,-1.8000001,
,,,-29.99999924E-6,-4.00000000,,,,,-29.99999924E-6,-1.8000001,
,,,-28.99999890E-6,-4.00000000,,,,,-28.99999890E-6,-1.8000001,
,,,-28.00000038E-6,-4.00000000,,,,,-28.00000038E-6,-1.8000001,
,,,-27.00000005E-6,-4.00000000,,,,,-27.00000005E-6,-1.8000001,
,,,-25.99999971E-6,-4.00000000,,,,,-25.99999971E-6,-1.8000001,
,,,-24.99999937E-6,-4.00000000,,,,,-24.99999937E-6,-1.8000001,
,,,-23.99999903E-6,-4.00000000,,,,,-23.99999903E-6,-1.8000001,
,,,-23.00000051E-6,-4.00000000,,,,,-23.00000051E-6,-1.8000001,
,,,-22.00000017E-6,-4.00000000,,,,,-22.00000017E-6,-1.8000001,
,,,-20.99999983E-6,-4.00000000,,,,,-20.99999983E-6,-1.8000001,
,,,-19.9999995E-6,-4.00000000,,,,,-19.9999995E-6,-1.8000001,
,,,-18.9999992E-6,-4.00000000,,,,,-18.9999992E-6,-1.8000001,
,,,-17.9999988E-6,-4.00000000,,,,,-17.9999988E-6,-1.8000001,
,,,-17.0000003E-6,-4.00000000,,,,,-17.0000003E-6,-1.8000001,
,,,-16.0000000E-6,-4.00000000,,,,,-16.0000000E-6,-1.8000001,
,,,-14.9999996E-6,-4.00000000,,,,,-14.9999996E-6,-1.8000001,
,,,-13.9999993E-6,-4.00000000,,,,,-13.9999993E-6,-1.8000001,
,,,-12.9999999E-6,-4.00000000,,,,,-12.9999999E-6,-1.8000001,
,,,-11.9999995E-6,-4.00000000,,,,,-11.9999995E-6,-1.8000001,
,,,-11.0000001E-6,-4.00000000,,,,,-11.0000001E-6,-1.8000001,
,,,-9.999999747E-6,-4.00000000,,,,,-9.999999747E-6,-1.8000001,
,,,-8.999999409E-6,-4.00000000,,,,,-8.999999409E-6,-1.8000001,
,,,-7.999999980E-6,-4.00000000,,,,,-7.999999980E-6,-1.8000001,
,,,-6.99999964E-6,-4.00000000,,,,,-6.99999964E-6,-1.8000001,
,,,-5.99999976E-6,-4.00000000,,,,,-5.99999976E-6,-1.8000001,
,,,-4.99999987E-6,-4.00000000,,,,,-4.99999987E-6,-1.8000001,
,,,-3.99999954E-6,-4.00000000,,,,,-3.99999954E-6,-1.8000001,
,,,-2.99999965E-6,-4.00000000,,,,,-2.99999965E-6,-1.8000001,
,,,-1.9999998E-6,-4.00000000,,,,,-1.9999998E-6,-1.8000001,
,,,-999.999770102E-9,-4.00000000,,,,,-999.999770102E-9,-1.8000001,
,,,227.37367249E-15,-4.00000000,,,,,227.37367249E-15,-1.8000001,
,,,1.0000002E-6,-4.00000000,,,,,1.0000002E-6,-1.8000001,
,,,2.0000002E-6,-4.00000000,,,,,2.0000002E-6,-1.8000001,
,,,3.00000011E-6,4.20000029,,,,,3.00000011E-6,-1.8000001,
,,,4.00000044E-6,4.00000000,,,,,4.00000044E-6,-2.0000000,
,,,5.00000033E-6,4.00000000,,,,,5.00000033E-6,-2.0000000,
,,,6.00000021E-6,4.00000000,,,,,6.00000021E-6,-2.2000000,
,,,7.00000010E-6,4.20000029,,,,,7.00000010E-6,-2.2000000,
,,,7.999999980E-6,4.20000029,,,,,7.999999980E-6,-2.2000000,
,,,9.000000318E-6,4.20000029,,,,,9.000000318E-6,-2.0000000,
,,,9.999999747E-6,4.20000029,,,,,9.999999747E-6,-2.0000000,
,,,11.0000001E-6,4.20000029,,,,,11.0000001E-6,-1.8000001,
,,,12.0000004E-6,4.20000029,,,,,12.0000004E-6,-1.6000000,
,,,12.9999999E-6,4.20000029,,,,,12.9999999E-6,-1.6000000,
,,,14.0000002E-6,4.20000029,,,,,14.0000002E-6,-1.4000000,
,,,15.0000005E-6,4.20000029,,,,,15.0000005E-6,-1.2000000,
,,,16.0000000E-6,4.20000029,,,,,16.0000000E-6,-1.000000,
,,,17.0000003E-6,4.20000029,,,,,17.0000003E-6,-800.000011921E-3,
,,,18.0000006E-6,4.20000029,,,,,18.0000006E-6,-600.000023842E-3,
,,,19.0000010E-6,4.20000029,,,,,19.0000010E-6,-400.00000596E-3,
,,,19.9999995E-6,4.20000029,,,,,19.9999995E-6,-200.00000298E-3,
,,,20.99999983E-6,4.20000029,,,,,20.99999983E-6,0.0,
,,,22.00000017E-6,4.20000029,,,,,22.00000017E-6,200.00000298E-3,
,,,23.00000051E-6,4.20000029,,,,,23.00000051E-6,400.00000596E-3,
,,,24.00000085E-6,4.20000029,,,,,24.00000085E-6,600.000023842E-3,
,,,24.99999937E-6,4.20000029,,,,,24.99999937E-6,800.000011921E-3,
,,,25.99999971E-6,4.20000029,,,,,25.99999971E-6,1.000000,
,,,27.00000005E-6,4.20000029,,,,,27.00000005E-6,1.000000,
,,,28.00000038E-6,4.20000029,,,,,28.00000038E-6,1.2000000,
,,,29.00000072E-6,4.20000029,,,,,29.00000072E-6,1.4000000,
,,,29.99999924E-6,4.20000029,,,,,29.99999924E-6,1.6000000,
,,,30.99999958E-6,4.20000029,,,,,30.99999958E-6,1.8000001,
,,,31.99999992E-6,4.20000029,,,,,31.99999992E-6,2.0000000,
,,,33.00000026E-6,4.20000029,,,,,33.00000026E-6,2.2000000,
,,,34.00000060E-6,4.20000029,,,,,34.00000060E-6,2.2000000,
,,,35.00000093E-6,4.20000029,,,,,35.00000093E-6,2.4000001,
,,,36.00000127E-6,4.20000029,,,,,36.00000127E-6,2.6000001,
,,,37.00000161E-6,4.20000029,,,,,37.00000161E-6,2.6000001,
,,,37.99999831E-6,4.20000029,,,,,37.99999831E-6,2.79999995,
,,,38.99999865E-6,4.20000029,,,,,38.99999865E-6,2.79999995,
,,,39.99999899E-6,4.20000029,,,,,39.99999899E-6,3.00000000,
,,,40.99999933E-6,4.20000029,,,,,40.99999933E-6,3.20000005,
,,,41.99999967E-6,4.20000029,,,,,41.99999967E-6,3.20000005,
,,,43.00000001E-6,4.20000029,,,,,43.00000001E-6,3.40000010,
,,,44.00000034E-6,4.20000029,,,,,44.00000034E-6,3.40000010,
,,,45.00000068E-6,4.20000029,,,,,45.00000068E-6,3.60000014,
,,,46.00000102E-6,4.20000029,,,,,46.00000102E-6,3.60000014,
,,,47.00000136E-6,4.20000029,,,,,47.00000136E-6,3.60000014,
,,,48.00000170E-6,4.20000029,,,,,48.00000170E-6,3.79999995,
,,,48.99999840E-6,4.20000029,,,,,48.99999840E-6,3.79999995,
,,,49.99999874E-6,4.20000029,,,,,49.99999874E-6,3.79999995,
,,,50.99999908E-6,4.20000029,,,,,50.99999908E-6,3.79999995,
,,,51.99999941E-6,4.20000029,,,,,51.99999941E-6,4.00000000,
,,,52.99999975E-6,4.20000029,,,,,52.99999975E-6,4.00000000,
,,,54.00000009E-6,4.20000029,,,,,54.00000009E-6,4.00000000,
,,,55.000000430E-6,4.20000029,,,,,55.000000430E-6,4.00000000,
,,,56.000000768E-6,4.20000029,,,,,56.000000768E-6,4.00000000,
,,,57.000001107E-6,4.20000029,,,,,57.000001107E-6,4.00000000,
,,,58.000001445E-6,4.20000029,,,,,58.000001445E-6,4.00000000,
,,,59.000001784E-6,4.20000029,,,,,59.000001784E-6,4.00000000,
,,,59.999998484E-6,4.20000029,,,,,59.999998484E-6,4.00000000,
,,,60.999998823E-6,4.20000029,,,,,60.999998823E-6,4.00000000,
,,,61.999999161E-6,4.20000029,,,,,61.999999161E-6,3.79999995,
,,,62.999999500E-6,4.20000029,,,,,62.999999500E-6,3.79999995,
,,,63.999999838E-6,4.20000029,,,,,63.999999838E-6,3.79999995,
,,,65.000000177E-6,4.20000029,,,,,65.000000177E-6,3.79999995,
,,,66.000000515E-6,4.20000029,,,,,66.000000515E-6,3.79999995,
,,,67.000000854E-6,4.20000029,,,,,67.000000854E-6,3.60000014,
,,,68.000001193E-6,4.20000029,,,,,68.000001193E-6,3.60000014,
,,,69.000001531E-6,4.20000029,,,,,69.000001531E-6,3.60000014,
,,,70.000001870E-6,4.20000029,,,,,70.000001870E-6,3.40000010,
,,,71.000002208E-6,4.20000029,,,,,71.000002208E-6,3.40000010,
,,,72.000002547E-6,4.20000029,,,,,72.000002547E-6,3.40000010,
,,,73.000002885E-6,4.20000029,,,,,73.000002885E-6,3.40000010,
,,,74.000003224E-6,4.20000029,,,,,74.000003224E-6,3.20000005,
,,,75.000003562E-6,4.20000029,,,,,75.000003562E-6,3.20000005,
,,,75.999996625E-6,4.20000029,,,,,75.999996625E-6,3.00000000,
,,,76.999996963E-6,4.20000029,,,,,76.999996963E-6,3.00000000,
,,,77.999997302E-6,4.20000029,,,,,77.999997302E-6,2.79999995,
,,,78.999997640E-6,4.20000029,,,,,78.999997640E-6,2.79999995,
,,,79.999997979E-6,4.20000029,,,,,79.999997979E-6,2.79999995,
,,,80.999998318E-6,4.20000029,,,,,80.999998318E-6,2.79999995,
,,,81.999998656E-6,4.20000029,,,,,81.999998656E-6,2.6000001,
,,,82.999998995E-6,4.20000029,,,,,82.999998995E-6,2.6000001,
,,,83.999999333E-6,4.20000029,,,,,83.999999333E-6,2.4000001,
,,,84.999999672E-6,4.20000029,,,,,84.999999672E-6,2.4000001,
,,,86.000000010E-6,4.20000029,,,,,86.000000010E-6,2.2000000,
,,,87.000000349E-6,4.20000029,,,,,87.000000349E-6,2.2000000,
,,,88.000000687E-6,4.20000029,,,,,88.000000687E-6,2.2000000,
,,,89.000001026E-6,4.20000029,,,,,89.000001026E-6,2.0000000,
,,,90.000001364E-6,4.20000029,,,,,90.000001364E-6,2.0000000,
,,,91.000001703E-6,4.20000029,,,,,91.000001703E-6,1.8000001,
,,,92.000002041E-6,4.20000029,,,,,92.000002041E-6,1.8000001,
,,,93.000002380E-6,4.20000029,,,,,93.000002380E-6,1.8000001,
,,,94.000002719E-6,4.20000029,,,,,94.000002719E-6,1.6000000,
,,,95.000003057E-6,4.20000029,,,,,95.000003057E-6,1.6000000,
,,,96.000003396E-6,4.20000029,,,,,96.000003396E-6,1.6000000,
,,,96.999996458E-6,4.20000029,,,,,96.999996458E-6,1.4000000,
,,,97.999996797E-6,4.20000029,,,,,97.999996797E-6,1.4000000,
,,,98.999997135E-6,4.20000029,,,,,98.999997135E-6,1.4000000,
,,,99.999997474E-6,4.20000029,,,,,99.999997474E-6,1.4000000,
,,,100.9999978E-6,4.20000029,,,,,100.9999978E-6,1.2000000,
,,,101.9999982E-6,4.20000029,,,,,101.9999982E-6,1.2000000,
,,,102.9999985E-6,4.20000029,,,,,102.9999985E-6,1.2000000,
,,,103.9999988E-6,4.20000029,,,,,103.9999988E-6,1.2000000,
,,,104.9999992E-6,4.20000029,,,,,104.9999992E-6,1.2000000,
,,,105.9999995E-6,4.20000029,,,,,105.9999995E-6,1.000000,
,,,106.9999998E-6,4.20000029,,,,,106.9999998E-6,1.000000,
,,,108.0000002E-6,4.20000029,,,,,108.0000002E-6,1.000000,
,,,109.0000005E-6,4.20000029,,,,,109.0000005E-6,1.000000,
,,,110.0000009E-6,4.20000029,,,,,110.0000009E-6,1.000000,
,,,111.0000012E-6,4.20000029,,,,,111.0000012E-6,1.000000,
,,,112.0000015E-6,4.20000029,,,,,112.0000015E-6,1.000000,
,,,113.0000019E-6,4.20000029,,,,,113.0000019E-6,1.000000,
,,,114.0000022E-6,4.20000029,,,,,114.0000022E-6,1.000000,
,,,115.0000026E-6,4.20000029,,,,,115.0000026E-6,1.000000,
,,,116.0000029E-6,4.20000029,,,,,116.0000029E-6,1.000000,
,,,117.0000032E-6,4.20000029,,,,,117.0000032E-6,1.000000,
,,,117.9999963E-6,4.20000029,,,,,117.9999963E-6,1.000000,
,,,118.9999966E-6,4.20000029,,,,,118.9999966E-6,1.000000,
,,,119.9999970E-6,4.20000029,,,,,119.9999970E-6,1.000000,
,,,120.9999973E-6,4.20000029,,,,,120.9999973E-6,1.000000,
,,,121.9999976E-6,4.20000029,,,,,121.9999976E-6,1.000000,
,,,123.0000053E-6,4.20000029,,,,,123.0000053E-6,1.000000,
,,,123.9999983E-6,4.20000029,,,,,123.9999983E-6,1.2000000,
,,,125.0000059E-6,4.20000029,,,,,125.0000059E-6,1.2000000,
,,,125.9999990E-6,4.20000029,,,,,125.9999990E-6,1.2000000,
,,,127.0000066E-6,4.20000029,,,,,127.0000066E-6,1.2000000,
,,,127.9999997E-6,4.20000029,,,,,127.9999997E-6,1.2000000,
,,,128.9999927E-6,4.20000029,,,,,128.9999927E-6,1.4000000,
,,,130.0000004E-6,4.20000029,,,,,130.0000004E-6,1.4000000,
,,,130.9999934E-6,4.20000029,,,,,130.9999934E-6,1.4000000,
,,,132.0000010E-6,4.20000029,,,,,132.0000010E-6,1.4000000,
,,,132.9999941E-6,4.20000029,,,,,132.9999941E-6,1.4000000,
,,,134.0000017E-6,4.20000029,,,,,134.0000017E-6,1.6000000,
,,,134.9999948E-6,4.20000029,,,,,134.9999948E-6,1.6000000,
,,,136.0000024E-6,4.20000029,,,,,136.0000024E-6,1.6000000,
,,,136.9999954E-6,4.20000029,,,,,136.9999954E-6,1.6000000,
,,,138.0000031E-6,4.20000029,,,,,138.0000031E-6,1.6000000,
,,,138.9999961E-6,4.20000029,,,,,138.9999961E-6,1.8000001,
,,,140.0000037E-6,4.20000029,,,,,140.0000037E-6,1.8000001,
,,,140.9999968E-6,4.20000029,,,,,140.9999968E-6,1.8000001,
,,,142.0000044E-6,4.20000029,,,,,142.0000044E-6,1.8000001,
